31992501_389_8803348392801
35647022_2876_8803348491105
75254318_495_8803575311201
40906119_154_8803458886497
41574176_125_8803575475041
43268463_322_8803451317089
41235629_356_8803462949729
41235629_104_8803462982497
41235629_405_8803463015265
40865120_60_8803457870689
40865120_125_8803457837921
42002288_101_8803462163297
41222420_125_8803461704545
42129253_101_8803346328417
42154456_125_8802378394465
41545307_320_8803460098913
41534931_117_8802571397985
33832797_244_8802322852705
44586761_384_8803463834465
42392047_103_8803459640161
41779065_385_8803456330593
43582335_85_8803430017889
41779335_204_8803574950753
41779341_385_8802431544161
38351041_405_8803578522465
38351041_85_8803578555233
43426948_384_8802242341729
43370702_104_8803454135137
41779386_85_8803582356321
39032445_125_8803577899873
43426946_85_8802242833249
39032112_320_8803581832033
44970194_410_8803575606113
41544778_320_8802628348769
39064034_101_8803578850145
43784071_404_8803448564577
41679802_119_8803463375713
41544542_101_8803496799073
43191861_88_8803449285473
42129029_125_8802765876065
41773264_104_8803448761185
41773272_104_8802647485281
39645306_204_8803574557537
41782973_101_8802421025633
41773280_88_8802706729825
41899126_204_8802821155681
44144005_120_8803451054945
42874212_204_8803459902305
41415734_85_8802569825121
42589569_244_8803459214177
41773306_331_8803448466273
43782389_360_8803449351009
43782445_125_8802680253281
41758473_204_8803455085409
44479451_85_8803451579233
37578693_320_8803581668193
39030802_320_8803578719073
40483916_85_8803454561121
44570238_204_8803463965537
44570238_320_8803463932769
40815816_204_8803464391521
42634975_204_8803347016545
43782042_101_8802653416289
43373236_180_8803450923873
44586753_101_8803451153249
44073988_204_8802680351585
42129324_85_8803461540705
40490566_154_8802624220001
42788770_320_8802799561569
42409017_320_8803463768929
41145030_320_8802810407777
41145030_263_8802810440545
41555006_126_8802764499809
41397933_320_8802627103585
42512365_320_8803458984801
41020125_71_8802223074145
40906167_125_8803455544161
42641710_125_8803450858337
42988182_125_8802810211169
43428800_62_8803449908065
42977347_263_8802395597665
42319207_125_8802842094433
42319207_60_8803461180257
43449601_125_8802811325281
43430899_125_8802810276705
42983733_154_8802361092961
42983733_125_8802394483553
42589688_60_8803460066145
43456690_279_8802765646689
42129444_140_8803453741921
41412744_320_8802323311457
43449501_320_8802766596961
42893306_125_8802770692961
40831590_125_8803583339361
42980650_264_8803581799265
41541427_401_8802222844769
40403063_320_8803306482529
31992501_389_8803348392801
35647022_2876_8803348491105
75254318_495_8803575311201
40906119_154_8803458886497
41574176_125_8803575475041
43268463_322_8803451317089
41235629_356_8803462949729
41235629_104_8803462982497
41235629_405_8803463015265
40865120_60_8803457870689
40865120_125_8803457837921
42002288_101_8803462163297
41222420_125_8803461704545
42129253_101_8803346328417
42154456_125_8802378394465
41545307_320_8803460098913
41534931_117_8802571397985
33832797_244_8802322852705
44586761_384_8803463834465
42392047_103_8803459640161
41779065_385_8803456330593
43582335_85_8803430017889
41779335_204_8803574950753
41779341_385_8802431544161
38351041_405_8803578522465
38351041_85_8803578555233
43426948_384_8802242341729
43370702_104_8803454135137
41779386_85_8803582356321
39032445_125_8803577899873
43426946_85_8802242833249
39032112_320_8803581832033
44970194_410_8803575606113
41544778_320_8802628348769
39064034_101_8803578850145
43784071_404_8803448564577
41679802_119_8803463375713
41544542_101_8803496799073
43191861_88_8803449285473
42129029_125_8802765876065
41773264_104_8803448761185
41773272_104_8802647485281
39645306_204_8803574557537
41782973_101_8802421025633
41773280_88_8802706729825
41899126_204_8802821155681
44144005_120_8803451054945
42874212_204_8803459902305
41415734_85_8802569825121
42589569_244_8803459214177
41773306_331_8803448466273
43782389_360_8803449351009
43782445_125_8802680253281
41758473_204_8803455085409
44479451_85_8803451579233
37578693_320_8803581668193
39030802_320_8803578719073
40483916_85_8803454561121
44570238_204_8803463965537
44570238_320_8803463932769
40815816_204_8803464391521
42634975_204_8803347016545
43782042_101_8802653416289
43373236_180_8803450923873
44586753_101_8803451153249
44073988_204_8802680351585
42129324_85_8803461540705
40490566_154_8802624220001
42788770_320_8802799561569
42409017_320_8803463768929
41145030_320_8802810407777
41145030_263_8802810440545
41555006_126_8802764499809
41397933_320_8802627103585
42512365_320_8803458984801
41020125_71_8802223074145
40906167_125_8803455544161
42641710_125_8803450858337
42988182_125_8802810211169
43428800_62_8803449908065
42977347_263_8802395597665
42319207_125_8802842094433
42319207_60_8803461180257
43449601_125_8802811325281
43430899_125_8802810276705
42983733_154_8802361092961
42983733_125_8802394483553
42589688_60_8803460066145
43456690_279_8802765646689
42129444_140_8803453741921
41412744_320_8802323311457
43449501_320_8802766596961
42893306_125_8802770692961
40831590_125_8803583339361
42980650_264_8803581799265
41541427_401_8802222844769
40403063_320_8803306482529
42977288_320_8802363353953
43276871_401_8802840521569
43276871_125_8802840488801
41145083_125_8802810702689
41574224_60_8803453610849
41228178_125_8802616879969
15033848_320_8802770987873
43267838_320_8802619796321
43456652_125_8802799823713
34742473_125_8802396547937
43782961_2895_8803464489825
41723620_230_8802801986401
43268726_320_8803227544417
43268726_85_8803579767649
40490926_320_8802625301345
42977254_264_8802358963041
42977254_125_8802358995809
42554898_62_8802821679969
41970502_125_8802810506081
42135246_384_8803585403745
42133457_320_8803584420705
42984680_326_8803463146337
41899088_385_8802822040417
41544528_320_8803465145185
41798603_320_8803456625505
43431193_125_8802802707297
41798725_306_8803452595041
41798725_385_8803452562273
43951157_85_8803575704417
43269666_113_8803447516001
41193849_125_8802162584417
41628475_125_8803465014113
41628484_320_8803462490977
40801073_2591_8803454266209
41628494_101_8802590567265
42635239_125_8802765515617
42132601_320_8803585633121
39032375_384_8803578063713
43333524_320_8802821417825
41692841_125_8803465866081
41544876_125_8803450039137
42972926_320_8802571234145
37578980_320_8803578751841
41779048_320_8803347180385
44064653_320_8803456691041
41692868_204_8803448040289
39032625_242_8803582094177
34046960_320_8803593530209
40020611_88_8802801003361
41899115_104_8803455904609
43782587_85_8802652597089
42983929_117_8803580848993
40049323_101_8803577211745
37483109_125_8803583601505
44014571_125_8803457051489
40863935_85_8803347999585
43785748_95_8803583896417
41779559_106_8803346885473
41779503_88_8802628021089
41779041_320_8803580488545
37835221_385_8803582159713
43254746_88_8802822073185
43439982_88_8802811554657
33834171_101_8803419827041
41713411_125_8802802969441
43326706_85_8803456592737
41839702_85_8802605181793
43277377_101_8802627857249
40431677_320_8803580783457
37578618_85_8803574393697
37578611_93_8803578948449
42137507_232_8803583994721
42137507_119_8803584027489
42137507_395_8803584060257
43254659_384_8802838096737
40304228_104_8802820860769
42556987_125_8803462523745
40304228_85_8803447352161
42987992_85_8802821647201
41151196_103_8803454757729
40304154_85_8802822237025
40304154_101_8802822204257
40876798_85_8803575540577
41151158_384_8802623531873
41151158_103_8802623499105
42893448_119_8803461311329
42555566_244_8802616093537
43254732_119_8802822335329
42987998_101_8802810145633
42871709_125_8802394712929
41151124_125_8802618747745
41151238_101_8802619763553
41723616_88_8802809850721
42871753_125_8803196119905
41700478_120_8802766465889
43325858_306_8802821811041
41700484_125_8802625891169
41682720_95_8802302569313
40304392_101_8802810866529
42642007_306_8803459967841
41019243_99_8802129914721
42871641_125_8802809260897
40855412_119_8802764172129
43278711_384_8803306613601
40304101_85_8803458296673
42871623_104_8802395827041
41679092_306_8802650139489
40304201_88_8802811947873
41151152_88_8802623630177
40304170_104_8802798906209
43254667_101_8803460524897
41544577_146_8803454921569
42888224_104_8802800937825
42888224_101_8802800905057
42888159_119_8803453774689
43277397_88_8802808965985
44024528_119_8802809621345
40856324_205_8803579145057
41548048_104_8803460033377
42556899_88_8802810375009
43254740_85_8802822138721
41692422_60_8803462392673
42973847_244_8802840619873
42980270_106_8803458329441
42973013_263_8803459246945
39313778_85_8803420679009
39312151_266_8803420875617
40304281_119_8802821483361
42984840_125_8802453826401
41970508_233_8803457117025
42557533_130_8802394319713
42557533_384_8802799004513
42557533_125_8802809162593
43254540_306_8802380852065
42806413_101_8803408882529
33832984_85_8802323180385
39057616_320_8803575769953
42657902_125_8803450956641
43582489_85_8803454331745
41899120_204_8803462785889
44479431_85_8803465374561
41544533_204_8803454495585
41783004_405_8802421812065
41541302_88_8802242964321
41541302_95_8802242997089
41019984_209_8802222320481
42130607_320_8802242407265
42130607_395_8803457313633
40021417_85_8802363419489
40020320_119_8802810178401
40020557_401_8802364992353
40020557_101_8802364959585
40021387_101_8802365582177
40701479_85_8802359487329
40701479_104_8802359454561
40020699_85_8802802051937
40701612_85_8803464719201
40021346_85_8803582258017
40201176_327_8803578817377
43277262_88_8802840750945
42036765_325_8803456461665
42888182_88_8803456035681
42036759_85_8803459935073
40465402_204_8802605935457
43781982_95_8803576261473
43254725_88_8802799889249
44014593_103_8803453053793
30011324_208_8803348360033
43927413_88_8803460459361
42660952_106_8803464129377
40021407_85_8802364468065
43367266_88_8803447581537
40876934_306_8803448597345
44564420_85_8803576425313
40021341_88_8802362829665
40020260_119_8802799201121
40020460_101_8802359389025
40020460_401_8802359421793
40020492_104_8802362796897
40701440_85_8802358930273
40701440_104_8802358897505
40023516_320_8803580554081
41333353_98_8802384096097
40865133_85_8803465735009
40865133_125_8803465636705
40865133_104_8803465669473
40865133_119_8803465702241
40049732_101_8802145151841
43582318_204_8803429985121
40857079_103_8803195693921
43277242_125_8802841930593
40306399_101_8802821090145
41839736_101_8802623892321
43277345_117_8802809326433
42068614_125_8802364894049
40701353_88_8802617633633
42808812_117_8802808638305
41712358_119_8803454200673
42888256_101_8803461344097
42888256_116_8803461376865
41723689_92_8802770824033
42887909_119_8802801462113
41839719_88_8802617535329
42888212_119_8802764729185
37483846_88_8803579702113
42971483_205_8802378460001
42392063_103_8803461049185
41228887_2901_8802625071969
41541287_306_8802704993121
41723584_85_8802766629729
39992035_401_8802243554145
39992044_401_8802242112353
40015280_103_8803421006689
41172266_453_8803574295393
41172266_101_8803574328161
40015486_101_8802242374497
40701394_101_8802615405409
42556692_120_8802809293665
42556718_88_8802810637153
43267851_88_8802615438177
41248029_104_8803459574625
41247950_279_8803327650657
40492982_279_8803327060833
40492982_459_8803327093601
42641063_92_8803348032353
41248061_459_8803456789345
43449576_104_8802810112865
42555492_85_8802394418017
40431671_125_8802158029665
43427696_85_8802800577377
40831672_104_8803577047905
40304259_85_8803447778145
40304096_85_8803455052641
40662755_103_8802622647137
41839628_85_8803452693345
40701362_85_8802624088929
43277384_85_8802811620193
43267858_119_8802840849249
40023488_85_8803580455777
42980841_230_8802383801185
42556668_120_8802624547681
42983687_281_8803459869537
40856952_101_8803194415969
42888038_88_8803457543009
41822622_204_8803408063329
41822622_119_8803408096097
43277269_88_8802619075425
40857162_103_8803454954337
40856888_130_8803459771233
42284730_119_8803447974753
41151160_101_8802624842593
42284781_95_8803465177953
42988025_88_8802366925665
40729288_119_8802799496033
41839799_103_8802653514593
41839763_103_8802620418913
40304245_119_8803458722657
43449559_95_8802801757025
43277256_88_8802764204897
41700471_125_8802618977121
43285630_85_8802840980321
43427687_103_8803454528353
41839695_125_8802620549985
42887920_103_8802808802145
41544554_88_8803307826017
42036658_384_8802395761505
40304615_101_8803452758881
43780389_103_8803454659425
41689961_125_8802799528801
41713690_263_8802822826849
40860933_101_8803194579809
40831615_101_8803581176673
42641917_94_8802810342241
42381365_125_8803451120481
33870706_85_8802382031713
40857215_125_8803457149793
42380889_101_8803463900001
40860845_125_8803194350433
42380818_88_8803453217633
42380818_94_8803453250401
42380603_101_8803457477473
42619100_120_8802811292513
42988011_244_8802801691489
42871577_116_8802395958113
40857119_116_8803195005793
43267908_104_8802618846049
42557709_125_8802622778209
43277080_125_8803454036833
43277080_85_8803454069601
42557523_116_8802808834913
42556943_119_8802822302561
44144027_320_8803455675233
44144027_204_8803455708001
40865091_85_8803462753121
40865091_125_8803462654817
40865091_62_8803462720353
40865091_104_8803462687585
40865091_88_8803462622049
42988018_204_8802395007841
43277112_101_8802620779361
42979166_88_8803456723809
33870719_320_8802381507425
41899513_85_8802606361441
44053750_88_8803595627361
44053750_94_8803595660129
44053750_95_8803595692897
42810352_103_8803593497441
44053690_160_8803595529057
44053690_85_8803595561825
44053690_140_8803595594593
41795005_320_8803464162145
43654725_106_8802841635681
44268737_101_8803464915809
44586736_2895_8803453021025
43192015_88_8803458624353
39122793_320_8803580521313
43782273_320_8803430345569
43582405_401_8803430181729
43367875_117_8803453119329
43582445_320_8803450202977
42660940_244_8803465964385
40802385_320_8803457444705
41544971_320_8802322819937
42588977_101_8803452398433
42875033_60_8802681006945
43191704_125_8803448073057
43370738_320_8803455773537
43499553_92_8803461213025
41562461_320_8802222713697
44703900_119_8803583241057
44703900_453_8803583208289
41692428_62_8803346295649
44018245_60_8803454167905
42406428_101_8803464751969
41668744_320_8803465538401
44103585_320_8803578096481
40801004_2590_8803455216481
40800996_85_8803449580385
44588493_334_8803434048353
14940027_378_8803587763041
42136448_384_8803584355169
42136448_119_8803584322401
42134368_384_8803585469281
42134368_119_8803585436513
42134376_119_8803585076065
34115635_401_8803136121697
38111205_3025_8803420482401
38111205_108_8803420515169
38111205_125_8803420416865
38111205_259_8803420449633
42132346_385_8803584387937
42134803_256_8803583961953
42134803_453_8803583929185
38111339_260_8803419695969
38111081_385_8803585141601
39990902_378_8801914760033
39122843_101_8803580423009
40076741_320_8802534665057
40076741_356_8802534697825
40076741_459_8802534730593
41723558_125_8802765777761
41544967_320_8802680384353
39991349_125_8803581406049
39991349_320_8803581373281
37655558_320_8803576589153
38254385_140_8803577178977
42808909_125_8802822531937
40015189_106_8803418712929
40015189_279_8803418680161
43366911_320_8803462851425
43366911_457_8803462884193
40802213_85_8803453381473
44078037_465_8803581864801
41819410_320_8803449711457
41628534_320_8802592598881
41798860_320_8803459410785
40800911_85_8803456822113
42636565_320_8803307989857
40801285_320_8803460721505
39914891_384_8803576752993
42973616_204_8803583175521
42973616_401_8803584453473
41587207_384_8802801953633
41181368_204_8802706533217
42649578_263_8803451186017
41172220_124_8803407571809
41172220_204_8803407604577
41172220_2918_8803405605729
40800730_320_8803459050337
42650505_285_8802644667233
43368007_320_8803165481825
24576703_101_8803419007841
42651792_95_8803112495969
41798543_101_8803448007521
41222497_453_8803347114849
41222497_125_8803347147617
41182173_85_8803457608545
40801047_384_8803462818657
43367660_204_8803458493281
41798496_326_8803453971297
29357932_320_8803574131553
43254485_230_8803463867233
43793839_320_8803461671777
41020054_85_8802222943073
42392314_85_8803449416545
37341684_378_8802100456289
44053761_61_8803553651553
44053761_88_8803553618785
44053761_160_8803568823137
44053688_231_8803585829729
44053688_2884_8803585862497
44053688_263_8803585895265
44054079_232_8803570756449
44053708_356_8802893474657
44053708_453_8803585928033
44053708_48_8803585960801
44054162_256_8803419433825
17591942_378_8803587926881
35364264_378_8803587861345
41587229_60_8803447876449
39030818_401_8803578293089
39030818_230_8803578325857
39033569_60_8803583470433
39031507_125_8803581471585
42657234_232_8802764827489
43269362_459_8803460918113
43236684_125_8802808605537
40795471_244_8803575245665
42319386_232_8802800642913
42319386_125_8802800675681
43267927_125_8802616322913
40001056_125_8802570087265
40001056_320_8802570054497
43369069_320_8803429460833
41216671_125_8803582749537
43782207_125_8803457280865
40834655_125_8803578030945
43367243_85_8803449482081
39991951_125_8802222254945
40048617_233_8802821942113
41172132_236_8803456396129
41172132_101_8803456363361
41172132_60_8803456428897
42649320_232_8802842127201
42888538_233_8802801625953
40000608_306_8802822466401
41678842_125_8803425528673
42888078_125_8803195628385
43586424_320_8802811259745
42589139_60_8802798938977
41782928_106_8803492637537
40965366_85_8803423955809
41397842_230_8802764106593
37652817_320_8803576130401
40964552_101_8802222812001
40964491_101_8802061560673
41820595_106_8803459378017
41026460_119_8802822499169
41026470_104_8802821024609
38254313_244_8803580357473
41026490_320_8803450465121
38254339_263_8803579210593
41558291_320_8802362370913
41558278_101_8803455871841
43268255_233_8802841570145
41779135_320_8803465079649
43430921_102_8803448662881
43430921_320_8803448630113
43430921_230_8803448695649
42635594_106_8802766236513
42635636_101_8802764270433
41229305_244_8803451743073
41181615_104_8803463506785
44064581_101_8803195726689
41228427_106_8802628545377
41181014_105_8803457182561
41181079_106_8803451710305
41228609_106_8802607049569
41229062_104_8802606721889
41020764_102_8802605837153
40431303_101_8801878879073
23753245_320_8803575868257
42788863_102_8803453545313
40431429_101_8803583142753
40049770_230_8802628479841
40049753_119_8802653383521
41019763_101_8803575442273
43456668_127_8803455642465
43431145_101_8802801888097
41544684_104_8803424709473
41723664_263_8803580029793
40015525_320_8803418614625
41899049_320_8803454298977
41899025_384_8803465243489
42659517_104_8803451087713
42589238_230_8802801789793
42589206_104_8802802641761
42589215_101_8802431937377
42589249_101_8802426366817
42068637_104_8802362272609
40863699_101_8803579997025
40860962_230_8802379148129
40863827_101_8802426301281
37397371_101_8803307662177
40863764_101_8802223041377
37397484_101_8803420253025
40863851_104_8802426399585
40860930_101_8802765810529
41713478_204_8803454364513
40834498_104_8802221861729
41587092_106_8802431576929
41713336_104_8803465571169
42619149_119_8802811784033
43254753_106_8802802281313
41690016_101_8802810014561
41690062_119_8802606656353
41690086_102_8802802019169
41416334_106_8803583306593
43239945_320_8803459705697
43257883_320_8803306548065
42622764_106_8803407145825
41544711_2918_8803449252705
41544740_320_8803452988257
43952174_332_8803358321505
41784853_101_8802420894561
40876647_288_8803459017569
41221893_453_8803575573345
43393855_320_8803306679137
42392080_101_8803460295521
42392010_331_8803452070753
41783864_384_8802421582689
44020714_320_8802647616353
44020714_85_8802647649121
40876819_94_8803583077217
41545320_204_8803449318241
42391980_320_8803465931617
37578635_325_8803582815073
42129421_140_8802604821345
41679797_260_8803196382049
42875044_85_8802647518049
41019933_320_8803582389089
42588987_106_8803405146977
42641081_306_8803580291937
41809166_127_8803459672929
43782860_384_8803583732577
39645391_320_8803581733729
44063141_88_8803464522593
41781332_101_8803482512225
41782654_306_8803492703073
44329547_320_8803461507937
43914341_92_8803430509409
44776186_204_8803576556385
42129316_140_8803451415393
41851188_125_8803580128097
43784134_320_8802653317985
40167856_140_8803579308897
43782478_384_8803576982369
44624842_263_8803583830881
37482946_244_8803581602657
43783551_101_8802679728993
41779279_125_8803582552929
43285397_125_8802764401505
39308679_320_8803579046753
41019958_320_8802223106913
40876630_385_8802222877537
41248350_453_8803327880033
43254514_306_8802383637345
44564294_401_8803580652385
37578476_125_8803579865953
37578571_119_8803577670497
44078123_306_8803579112289
40802247_263_8803448531809
40800885_320_8803463998305
40801239_101_8803450006369
41818939_306_8803427068769
40802184_320_8803464850273
41818867_325_8803464948577
40800950_333_8803456953185
40800691_263_8803447941985
44064625_326_8803459312481
40484918_125_8802052352865
38506749_119_8803582978913
43640767_263_8803306580833
37578367_465_8803577834337
40167951_125_8803583667041
39031593_2938_8803574360929
37589988_320_8803577736033
39308654_230_8803574885217
43217091_125_8803582618465
42129088_2900_8802606918497
42561259_62_8802770627425
43786630_125_8803449154401
39032130_320_8803574721377
41172122_498_8803405867873
39484281_140_8803574197089
44414567_325_8803482315617
42132826_204_8803584682849
42132826_474_8803584650081
42136799_453_8803584224097
44077936_320_8803585174369
41248419_125_8803327486817
42133426_125_8803585370977
41535125_320_8802571529057
41535125_101_8802571561825
40888397_328_8803575278433
41631033_263_8802810571617
40856871_101_8802766105441
41227960_60_8802623433569
40049425_60_8803445058401
40049335_125_8802169367393
40049335_60_8802169432929
40049335_260_8803348294497
41161286_279_8803451939681
43277686_71_8802809752417
43277737_233_8802840882017
43277737_125_8802840914785
43277686_131_8803450661729
40431569_60_8803581111137
40431554_233_8803578456929
41662069_125_8802169301857
43254771_60_8802801658721
41407233_85_8803577277281
41723580_119_8802763909985
42622663_95_8803347868513
42888405_85_8802766400353
42888405_60_8802770889569
40049478_154_8803338038113
40049478_260_8803338136417
40049478_101_8803343018849
40049478_401_8803338103649
40465335_125_8802606230369
40465335_154_8802606197601
40015387_60_8802243259233
43405149_384_8803452660577
43405149_60_8803452627809
37514483_60_8803581078369
41017574_62_8803458952033
40015338_101_8802243881825
40015338_384_8802243947361
40015338_405_8802243914593
40015338_1888_8802243849057
40015338_285_8802243980129
42318909_60_8803461114721
42154466_125_8802770791265
40965400_457_8803347049313
40048458_119_8802361355105
40048608_233_8802821548897
40048560_119_8802606099297
42888318_101_8803194678113
40185048_320_8803581307745
42556172_125_8803457018721
41669075_230_8802278648673
43378856_320_8803448826721
43378856_244_8803448859489
41152762_125_8803574459233
40800660_232_8803455740769
43782571_320_8803461999457
40856906_60_8802764303201
42660947_106_8803457084257
39991598_71_8803576327009
42032114_119_8802242538337
42032114_456_8803405540193
44791153_97_8803575507809
43367780_356_8803453709153
42406527_125_8803577113441
41873719_256_8802243324769
40048484_119_8802617043809
40592766_320_8803579931489
43582517_125_8803453905761
41809164_320_8803458460513
43783531_204_8803453283169
43783531_230_8803430443873
43782201_101_8803459804001
41779630_125_8803578620769
41782030_306_8803451251553
43218359_320_8803581897569
38254349_140_8803574164321
41779634_320_8802446551905
42788969_263_8802801232737
42893455_104_8802366303073
42893455_230_8803455413089
40015541_125_8802243160929
40465311_125_8803448367969
40465311_103_8803448335201
40465311_60_8803448400737
41222437_125_8803472386913
43373724_119_8803457641313
42973405_320_8803449088865
39645377_327_8803580717921
41970556_125_8803450071905
41970556_60_8803450104673
40815919_125_8803327159137
40729260_125_8802765679457
40729240_263_8803451874145
43782351_320_8803457510241
42622679_356_8803451775841
42622679_140_8803451808609
43582347_125_8803217648481
41692642_101_8803460787041
33833728_244_8802322525025
42806368_125_8803583273825
24244944_125_8802764860257
43277868_71_8802820926305
42988189_125_8802800053089
42619169_263_8802842028897
42979270_125_8802395859809
42979270_263_8802395892577
37604735_244_8803579439969
42984813_320_8802360404833
39031465_125_8803577932641
39290856_320_8803580947297
39290856_125_8803580980065
42972033_119_8803463703393
41723556_125_8803315886945
43277886_125_8802616191841
40863804_125_8803454430049
30238769_230_8803583404897
30238769_405_8803583372129
40490610_263_8802808703841
40490610_125_8803581504353
41798691_52_8803449776993
39290849_320_8803581143905
40734704_62_8802822695777
40734704_125_8802822663009
23863860_320_8803194940257
41238193_85_8803453414241
41703970_125_8803347573601
41145220_125_8803465833313
43267583_85_8803463408481
43267589_125_8803457772385
40049672_401_8802361289569
40049672_154_8803450694497
41161173_60_8803449842529
41161173_85_8803449875297
40490547_101_8803465472865
43266366_85_8802679827297
42657402_125_8803463605089
37578817_306_8803577703265
41547984_233_8803460000609
43285818_85_8802765482849
42380553_125_8803463637857
40304310_361_8803453479777
42380553_85_8803463670625
42555254_85_8802452810593
42555254_131_8802365647713
42641871_85_8803194973025
42641864_88_8803193957217
41415901_88_8802617764705
41415901_405_8802617797473
41415901_102_8802358537057
41415901_101_8802627627873
42381565_101_8803456756577
42893889_85_8802365614945
40831727_93_8803581438817
42871386_116_8803581930337
42285001_125_8803458100065
42871489_101_8803457739617
42871498_85_8802811751265
42871506_104_8802810243937
40964847_62_8802223205217
41723542_125_8802799790945
42893833_125_8803449613153
43277948_401_8803458755425
43277948_131_8803458853729
43277948_263_8803458820961
43277948_119_8803458788193
41682734_233_8802302602081
41723547_125_8802764991329
40890312_402_8803452922721
40890312_85_8803452955489
40890312_125_8803452857185
40890312_104_8803452889953
42888520_85_8803447417697
42888520_401_8803447384929
42406194_119_8802801363809
41548029_101_8803459148641
41548029_401_8803459181409
42871294_320_8802617076577
42871294_101_8802617109345
42871294_125_8802617142113
42555836_232_8802366499681
42319275_119_8803458558817
42972875_126_8803566431073
42979563_140_8803447548769
42284807_230_8802649385825
42555694_101_8802626939745
42284807_256_8803464588129
42284807_453_8803464555361
42284925_101_8803459345249
42284746_101_8803461475169
42284912_244_8803465800545
42284906_230_8803449056097
42284807_356_8803464620897
42555742_60_8803465341793
42284918_104_8803457706849
42619194_125_8802801822561
42619194_230_8803455576929
41554879_125_8802810735457
43267965_125_8802645519201
43267965_85_8802616290145
43428767_119_8803451612001
41703934_95_8803347442529
42555926_244_8802616126305
42408939_125_8802362698593
42555795_130_8802362862433
42555890_402_8802361617249
42555939_132_8802617731937
42555782_257_8802361584481
40856979_103_8803194776417
41700526_140_8803196283745
41700526_384_8803196316513
40856902_384_8803195202401
42555877_128_8802628512609
42555810_101_8802621369185
42555871_233_8803455445857
42555883_85_8803451513697
41573398_125_8803455282017
41573398_85_8803455314785
41409907_233_8802799266657
42809221_85_8802615569249
42809221_101_8802798840673
42809221_125_8802615536481
41548016_125_8802764958561
41548016_230_8803457674081
42556039_401_8803449744225
42556018_230_8803451448161
42556025_125_8803464063841
42556046_85_8803451349857
43278147_101_8803447450465
43278147_401_8803447483233
42974298_85_8803450432353
41700514_140_8802606623585
43427599_320_8802800020321
32220988_104_8803421137761
43267985_101_8802840652641
41554867_92_8803453512545
41194100_131_8803465898849
42619182_101_8802810899297
42619182_405_8802802215777
43325822_85_8802802477921
43278192_402_8802614979425
43278249_125_8802799692641
43278249_224_8802799725409
43278249_104_8802799758177
40856878_119_8802765712225
41415370_101_8802142989153
41703999_360_8803459509089
41703999_230_8803459541857
43648522_230_8803457903457
41573298_99_8803448499041
80704372_344_8802130668385
80704372_394_8802383473505
32220940_401_8803420580705
42154911_125_8802647714657
42154921_85_8802647354209
41573479_125_8803465046881
41713545_263_8802764073825
42406590_125_8803454790497
23864021_85_8802620812129
33870669_85_8802810309473
38659654_101_8803575901025
38659746_85_8803582847841
43254784_254_8802799102817
42285211_125_8802169138017
41184834_104_8803455150945
41184834_393_8803455183713
41184834_385_8803455118177
40490679_106_8803457346401
40049795_130_8802379737953
40490579_88_8803456297825
40490622_104_8803452169057
40490622_85_8803452234593
40490622_125_8803452136289
40490622_402_8803452201825
41379905_125_8802144758625
32220940_401_8802485644129
41899747_230_8802626972513
42871404_240_8802621074273
42382415_232_8803460557665
41573142_85_8803457936225
43654750_401_8803455609697
43440026_85_8803458198369
43440026_230_8803458231137
39310913_101_8803583109985
29065923_232_8802436262753
29065923_127_8803579374433
43325890_106_8802799037281
43254496_125_8802382621537
43325897_120_8802800610145
43369027_204_8803205983073
41822639_85_8803460983649
41222325_85_8803407801185
41406963_103_8802647092065
40049696_405_8802157570913
39031491_320_8801877699425
39031491_204_8803576687457
40049401_88_8803581700961
40049445_125_8803581569889
43431187_2938_8803458362209
39066171_320_8803577310049
40965035_62_8802222025569
40795507_230_8803574426465
40049365_101_8803577768801
40049372_125_8803574786913
40049372_178_8803574754145
37636571_232_8803577375585
42653359_204_8803456494433
42589434_119_8803452267361
39490799_62_8803575212897
42285218_125_8802169269089
42973902_62_8802379180897
37578920_464_8803578391393
42657159_104_8802811587425
42657180_232_8803461868385
41235980_125_8803452431201
41235980_104_8803452463969
42657209_120_8803464686433
42657274_125_8803465112417
41544833_204_8803456068449
43325830_125_8803462458209
42620678_233_8803449023329
41573573_401_8803577998177
42319404_104_8803461639009
42971827_119_8802382162785
42068814_356_8802360109921
42068814_119_8803449514849
34165006_104_8802812046177
34165006_402_8802812078945
41970520_401_8803456199521
41970520_230_8803456232289
41573606_101_8803460623201
42888460_103_8802801167201
42284753_230_8802649353057
43582331_224_8803452496737
42893932_104_8802394450785
43278411_88_8802647550817
41020222_320_8803581012833
42284986_60_8803447319393
33602940_385_8802396023649
85839108_385_8802765548385
41723754_238_8803578489697
39038966_60_8803583765345
39038966_62_8803583798113
41970532_119_8803464031073
39032543_85_8803579472737
39031283_230_8803577244513
42982120_125_8803582421857
42984776_204_8802379443041
43440054_233_8802771086177
43464795_263_8803452005217
41640672_204_8802222975841
37578985_320_8803576720225
40856244_401_8803581242209
43582324_320_8803454823265
42557044_125_8802809588577
37578880_393_8803582946145
41407583_104_8803585108833
40964830_357_8802221960033
41662126_125_8802802084705
41403102_101_8802322557793
39645352_62_8803576294241
42284723_320_8803448171361
43641027_232_8803447647073
43641027_320_8803447614305
42893950_116_8802765974369
41152894_401_8802222156641
35867711_204_8803580095329
43369376_278_8803195333473
40000989_125_8802323082081
40000989_204_8802323114849
40000989_320_8802323049313
43418978_384_8803461966689
40000909_474_8802322656097
40000909_320_8802570251105
40000909_204_8802322754401
40000909_233_8802322688865
40000909_244_8802322721633
37578727_320_8803577408353
41692851_204_8803460426593
39032226_244_8803582684001
39032226_232_8803582651233
39030782_320_8803581963105
39030782_125_8803581995873
39030782_263_8803582061409
39030782_60_8803582028641
43368164_125_8803458165601
43368164_453_8803458132833
39031453_459_8803574655841
39031453_85_8803574688609
39031453_320_8803574623073
43419077_67_8803463572321
34297661_60_8802590665569
41152886_125_8802222123873
39032874_85_8803576195937
37578953_453_8803577441121
41779412_356_8803346426721
37578898_325_8803575180129
37578991_124_8803576654689
43582354_204_8803430050657
41544551_122_8803456265057
41781723_320_8803460197217
41779328_320_8802430135137
40060026_356_8802127326049
40060026_107_8802162977633
43366895_88_8803456101217
44285335_263_8803457215329
41779552_204_8803575835489
43439385_325_8802798971745
42621205_140_8802800839521
39033286_85_8803579243361
40049853_402_8802168974177
39031391_453_8803580259169
39031391_154_8803580193633
39031391_178_8803580226401
39030882_125_8803579538273
41713467_119_8802771020641
43586413_244_8803453938529
40734721_119_8802606558049
40734721_140_8803462916961
43370708_125_8803306875745
39991964_62_8802053532513
43269351_357_8803458034529
43269351_62_8803458067297
39031788_401_8803582716769
40015306_204_8802243095393
39424716_120_8803576032097
41379817_120_8802144168801
41172148_232_8803347802977
41172148_279_8803347835745
40015313_405_8802242800481
39036564_85_8803580685153
43783009_204_8803450137441
39031011_244_8803576621921
41779730_320_8802429315937
43784797_320_8803459607393
40490884_232_8802618026849
40490884_125_8803448269665
42312994_325_8802382424929
41179525_125_8802242931553
43268714_320_8802380360545
43369558_125_8803464981345
42875236_320_8802645125985
38589215_101_8802221992801
42875258_320_8802646797153
43370140_320_8803194448737
44860493_85_8803578981217
44014602_127_8802820828001
37578653_320_8803580914529
43782075_320_8802680843105
38811353_320_8803580881761
43783511_204_8803430411105
43582414_119_8803430214497
41801731_88_8802770758497
44970170_204_8803579571041
42392033_401_8803453676385
43368456_320_8803449940833
38983289_125_8803578194785
42130581_140_8803456985953
41757896_125_8803347966817
22161293_140_8803421268833
22161293_356_8803421236065
43995991_88_8803447712609
42392040_401_8803455249249
41504019_127_8803583011681
37578641_325_8803580390241
41692109_453_8803458001761
44541965_457_8803583503201
44541965_119_8803583535969
44541965_384_8803583568737
43654412_125_8803430312801
37578733_320_8803575376737
43254870_88_8802821745505
43906937_256_8802646502241
38175893_325_8803579013985
39314908_320_8803578915681
42391973_320_8803452529505
38485351_356_8803578882913
38175876_325_8803583437665
42129058_127_8803449383777
43192030_88_8803456854881
38175944_325_8803578358625
40876683_385_8803447843681
41640656_320_8803338005345
41640656_356_8802222386017
44020698_60_8802645224289
42129066_125_8803460590433
44570256_384_8803462294369
44570256_125_8803582192481
42036770_325_8803453348705
42036770_88_8803453315937
41798700_62_8803462228833
43582309_125_8803429919585
40167949_320_8803579833185
37483892_320_8803574917985
41407513_125_8803576785761
40965155_495_8802242243425
37578509_320_8803582126945
43582373_125_8803464358753
44586739_125_8803449187169
44074390_306_8803461770081
44916491_85_8803583863649
39282118_320_8803579276129
37578909_325_8803577146209
43254509_306_8802381966177
42978919_320_8802340219745
39310861_401_8803579800417
43582375_320_8803448728417
43327645_127_8803463801697
40856180_125_8802646567777
43783309_125_8803430378337
37578837_320_8803578686305
40763099_332_8803579669345
42589299_101_8803463113569
41143175_320_8803582487393
41143175_331_8803582520161
44521892_320_8803456002913
41545254_320_8802322951009
42875850_125_8802841832289
42635562_125_8802840456033
44021964_127_8803447679841
41692137_62_8803346492257
43617343_320_8803454724961
43369845_125_8803455511393
43582314_320_8803429952353
44020658_204_8802645584737
43191830_125_8802821712737
42696721_85_8802647583585
44541995_453_8803583044449
42153449_462_8802706500449
42153449_119_8803460492129
43370916_401_8803460655969
43426942_85_8803577801569
37578526_320_8803582225249
41779499_125_8803307957089
41692166_320_8803464457057
41534786_125_8803406490465
37578599_320_8803579341665
43782054_125_8803461147489
40167927_320_8803581274977
39122853_347_8803576458081
37578482_230_8803581766497
37578828_466_8803575671649
43232048_395_8803306777441
42391998_331_8803451677537
41534828_125_8802322426721
41534828_320_8803464096609
40876848_395_8803451480929
40168302_329_8803576949601
43254877_85_8802809686881
34598776_384_8802189880161
41703880_384_8802222418785
43648536_401_8803450235745
39645663_401_8803576490849
42392259_401_8803458657121
44169999_125_8803450268513
44916560_125_8803582913377
42875284_101_8802680154977
43163693_320_8803455478625
37578466_125_8803579636577
40866256_320_8803577637729
41779746_125_8803583634273
41779746_401_8803465505633
43163817_125_8803450399585
44170188_356_8803453184865
40050706_117_8803579964257
40166629_125_8803581045601
44170257_204_8803452037985
43163637_320_8803461802849
44072598_60_8803543493473
39984969_242_8802138499937
44707184_204_8803584191329
33583127_325_8803419499361
43791570_401_8803576064865
44020674_325_8802645748577
43782591_125_8802681170785
43787379_395_8803584879457
41679107_386_8802323147617
41678922_125_8802322492257
41779379_356_8803307760481
44014577_127_8803462064993
43784746_95_8803576392545
37578548_466_8803577473889
41851161_204_8803405179745
42561633_453_8802770463585
41534754_101_8802322885473
44290876_392_8803451218785
41544931_204_8802396285793
44020696_85_8802646174561
44020696_361_8802652924769
44020696_125_8803448302433
35240161_378_8803587828577
65243859_320_8803308350305
39587062_320_8801868688225
39587062_154_8801868720993
39587062_453_8803137170273
39587062_125_8802517396321
39587062_466_8803137235809
41692620_119_8803348065121
41818872_320_8803427036001
41713380_106_8803458919265
43430907_119_8802802674529
42319123_71_8802800544609
42988131_71_8802802150241
42319086_125_8802800479073
42988144_101_8802802805601
42319086_405_8802800511841
42988137_402_8802800970593
42619245_119_8802809424737
42619252_279_8802812111713
42619252_104_8802812144481
42390136_125_8803448138593
43325815_85_8802808572769
42135108_474_8803584584545
42135108_204_8803584617313
42619409_357_8802811489121
42619238_101_8802623662945
43268483_105_8802615700321
44302490_320_8803574852449
40863742_102_8803347770209
42619271_120_8802810669921
41781947_278_8803519507297
41713502_60_8802770856801
41899650_119_8802623794017
42068735_106_8803450301281
41235764_244_8803450596193
42132861_106_8803584813921
41798502_306_8803465309025
41181161_104_8802649516897
42132337_389_8803585305441
42132337_306_8803585338209
41587324_106_8803458689889
41690278_125_8803196021601
33870634_263_8802800348001
44290868_60_8803455019873
44290868_320_8803454987105
41631061_125_8803578424161
38111130_386_8803584977761
38111130_62_8803585010529
42133897_119_8803585502049
42134199_385_8803585665889
42133808_320_8803585534817
42133808_453_8803585567585
42133808_256_8803585600353
42135637_306_8803585731425
42135324_385_8803584093025
33682104_320_8803584551777
42133361_320_8803584158561
42133361_385_8803584125793
42137580_119_8803584944993
42133048_320_8803585764193
42133048_384_8803585796961
42135476_306_8803584846689
44427919_85_8803584715617
42135059_119_8803584256865
42135059_384_8803584289633
42135945_384_8803584748385
42132974_384_8803585698657
42133946_320_8803585207137
42133946_453_8803585239905
42133946_256_8803585272673
38111193_385_8803418844001
42136946_453_8803584486241
42136946_256_8803584519009
41679380_125_8803460229985
42659511_125_8803447745377
37578771_320_8803576818529
37578771_230_8803576851297
42589482_101_8802798807905
42983782_232_8803582454625
39112493_205_8802222680929
39339047_385_8802222189409
41668884_264_8802821122913
41669229_328_8802276453217
42406615_233_8803451546465
41851150_230_8803463474017
43278481_233_8802841308001
42871963_125_8802841537377
43278520_125_8802841963361
41631106_263_8803454856033
41712325_233_8802395040609
42406633_320_8803451022177
41402883_99_8803578129249
43278513_117_8802809129825
42554742_233_8803450628961
42641165_85_8803347508065
42589487_233_8802800282465
42982527_230_8803456527201
41713450_204_8802809785185
41819192_85_8802706762593
43268215_320_8803461573473
43268222_320_8803452332897
42392220_232_8803451284321
43722020_232_8803451841377
42364868_453_8802764893025
44441729_384_8803464293217
42364926_401_8802763975521
42589503_119_8802800773985
41402871_125_8803574492001
41402871_140_8803574524769
42389947_101_8803460754273
37578849_230_8803576228705
37578765_320_8803576523617
43499571_306_8803453086561
43617041_320_8802802314081
41801695_232_8802801920865
41713461_119_8802809391969
43266268_95_8802680777569
41704208_125_8803452365665
42392210_384_8803454626657
37578784_401_8803577604961
41779170_384_8803463539553
40800811_230_8803452300129
44570264_204_8803447810913
40083889_60_8803460819809
40083889_393_8803460852577
41662137_244_8802802608993
43378845_244_8803459836769
44916524_97_8803578784609
43266205_230_8802680548193
41690326_101_8802143316833
40049929_233_8802157308769
40049922_125_8802156948321
42635269_3020_8802801331041
42071534_125_8803316312929
42988038_85_8802361387873
41798553_232_8803453643617
40063116_378_8803587894113
42154477_2938_8802222517089
42659526_230_8803448105825
41407226_60_8802680810337
40801264_320_8803448957793
42392288_401_8803462097761
42392288_85_8803462130529
41899153_385_8803465210721
40431705_230_8803575114593
39030723_320_8803575966561
42071572_257_8803450792801
41669189_92_8802278058849
41182238_85_8803461442401
42657656_103_8802618452833
42657656_356_8802646305633
42657697_85_8802841111393
42657697_125_8802645486433
41407192_356_8803455937377
41818850_360_8803462425441
41899347_393_8803457968993
39645652_230_8803575147361
41798667_125_8802841602913
41415763_320_8802605706081
41415763_125_8802605738849
41415763_385_8802605673313
41415763_85_8802646141793
43266349_119_8802646993761
43784207_85_8803450891105
41773320_85_8803456133985
41773320_384_8803456166753
42096556_127_8803463441249
42596689_125_8803463310177
43784234_401_8803465997153
40802354_85_8803457248097
41798764_85_8803459738465
41798525_232_8803461016417
43367353_85_8803453152097
43431176_95_8802645093217
41669521_92_8802276977505
41669514_320_8802276322145
41669388_230_8802277239649
41669410_356_8803460361057
41669377_320_8802277895009
40360435_101_8803577965409
41669249_230_8803463277409
42068763_99_8803454692193
42619355_125_8802810768225
42129436_140_8802607016801
34778021_125_8802395663201
42319505_125_8803460393825
42068777_145_8803460950881
43268046_85_8802623695713
43325931_401_8802799856481
40860897_119_8802322361185
43325867_356_8802800184161
43325867_401_8802800216929
42314352_230_8803458591585
40860913_85_8802358438753
41145290_125_8802809228129
42555218_85_8803459443553
41379971_125_8803580062561
41238255_125_8802143873889
40861161_256_8803454397281
40855407_85_8802766072673
41238315_101_8802143841121
40831955_101_8803576359777
42406730_233_8803462032225
42406737_85_8803455806305
42894214_125_8803461278561
42002340_85_8802765351777
42555182_85_8802451630945
42988088_85_8802620910433
42364902_320_8802764565345
42555175_85_8802363616097
42364913_232_8802765024097
42002333_85_8802822728545
42392277_85_8803454233441
42392283_232_8803460262753
41224430_233_8802606263137
41224430_101_8802606295905
42871901_125_8803450989409
41238267_401_8802145807201
41238267_125_8802145774433
42871857_119_8803576097633
42894026_384_8802396187489
42284993_88_8803449645921
42894145_103_8802359192417
42977070_119_8803449547617
42894286_125_8802367089505
42555212_105_8802358668129
43430914_101_8802802740065
42068751_356_8803462196065
38990243_230_8803577572193
42319464_232_8803455347553
42319444_232_8803448892257
42319444_204_8803448925025
41723571_85_8803448433505
43268008_125_8803461901153
41712344_233_8802433149793
42894194_85_8803447909217
30121545_119_8802802772833
41573848_85_8802559339361
43654770_85_8803460688737
44418557_85_8803195399009
43268082_457_8803450530657
43268082_85_8803450563425
43278534_85_8802802445153
43278534_125_8802802412385
43261404_401_8803575933793
41723575_145_8803464817505
41403227_104_8802221894497
42554771_125_8803458394977
42988083_117_8802367122273
41779585_384_8803464325985
41407143_104_8803579407201
43266384_117_8802766170977
39227902_244_8803576884065
41899176_244_8803460885345
41713568_104_8802809883489
42380461_244_8803465603937
23864066_125_8803420973921
43367349_356_8803451906913
44916469_85_8803582585697
42789097_125_8802381245281
41278696_320_8802801036129
43254891_204_8802799954785
42981725_204_8803582290785
44586714_125_8803463244641
43914313_2918_8803457575777
43782294_125_8803464784737
40795444_85_8803581340513
34742814_85_8803419925345
34742814_320_8803419892577
43783404_85_8803449449313
43266248_101_8802802576225
43268103_85_8802622548833
43367686_204_8803194284897
43367907_356_8803194252129
43367907_263_8803205950305
39031804_459_8803580619617
39031804_232_8803580586849
40795442_232_8801860954977
42096502_320_8803463048033
41779610_384_8803449121633
39645366_328_8803581537121
41247687_256_8803456658273
41247580_306_8803454004065
41180817_320_8803460131681
41180817_224_8803460164449
42589532_65_8803461606241
40831961_125_8803582323553
42313749_233_8802364926817
43366886_125_8803457411937
43366886_453_8803457379169
43367544_128_8803464194913
34297444_119_8802361256801
39031770_453_8803574983521
37578759_320_8803575343969
43419123_320_8803451382625
43782126_401_8803462327137
40490755_125_8802605968225
40490779_85_8802605771617
40490839_233_8803450334049
40490839_119_8803450366817
43952158_127_8802799168353
41913208_320_8803465767777
42390009_320_8803461409633
42389968_104_8803462589281
42389968_320_8803462556513
40431758_205_8803580750689
42988064_85_8802366991201
42988095_119_8802362633057
41798519_85_8803448236897
43456678_125_8803452824417
43456678_320_8803452791649
41662142_99_8802169072481
43297579_204_8803458427745
41020010_204_8802222779233
41020010_320_8803578588001
42974936_238_8802380327777
42000264_125_8803576163169
42975973_320_8802379508577
41180726_384_8803461933921
40015326_88_8802381704033
41172174_204_8803348196193
41172174_125_8803348163425
41172186_453_8803347278689
41172186_125_8803347344225
41172186_278_8803347311457
41172186_2590_8803347409761
41172186_104_8803407670113
41172186_204_8803347376993
43368647_453_8803195661153
43368647_60_8803166890849
41222510_125_8803346787169
41222510_453_8803346754401
39645417_327_8803579505505
43456703_85_8803450170209
41229091_85_8802606984033
41229647_106_8802606754657
41228973_85_8802605804385
41229244_85_8802616945505
41229244_119_8802605312865
41779163_204_8803577080673
41780090_204_8803465440097
41779834_320_8802426628961
41779025_85_8803348327265
41779214_92_8803575737185
41503841_401_8803574262625
43367406_244_8803461737313
41379956_119_8802142956385
41504081_320_8803580324705
41379929_85_8803575802721
40906362_125_8802322393953
43431157_125_8802680122209
42557226_101_8802811063137
42557226_256_8802811095905
42557226_457_8802811194209
42557226_465_8802811128673
42557226_356_8802811161441
40083771_356_8802156882785
43138596_119_8803575081825
43138596_204_8803448793953
39031472_232_8803581635425
41713428_204_8802766007137
43431222_402_8802764663649
43431222_104_8802764630881
43431222_230_8802764696417
42589558_204_8803463179105
41723600_204_8802766662497
42554812_85_8803464227681
43254519_230_8803466062689
43254519_88_8803466029921
42875844_204_8802840718177
42981397_263_8803580160865
42135826_385_8803585043297
38111016_385_8803420908385
42978956_401_8802382195553
41782626_101_8803492572001
43368220_325_8802428005217
44170123_356_8803461835617
41779437_325_8802445601633
44170003_356_8803464424289
41779148_320_8803582880609
43996432_320_8803454888801
41152847_107_8802222484321
41779146_88_8803575999329
43163686_204_8803456887649
41779056_204_8802430757729
41779330_125_8803578162017
44077420_320_8803579079521
41779743_401_8802428267361
43367873_320_8803450497889
42313011_263_8803457805153
40002519_125_8803579603809
41783561_85_8802421648225
37965661_320_8802222353249
41784270_384_8802421320545
44109792_204_8803449809761
43254480_306_8802384030561
42640924_88_8803583699809
37578683_85_8803578227553
42635373_204_8803579177825
41873359_125_8803227806561
41407163_230_8803574229857
40800653_320_8803464653665
41545224_384_8803577342817
41179137_88_8803456559969
43621180_204_8803574590305
44522026_320_8803461081953
42639043_320_8803453840225
42639043_60_8803453872993
42545862_85_8803461245793
41801726_85_8802802379617
42621336_320_8803579898721
44014589_140_8802800151393
40763015_125_8803577506657
43439368_401_8803464260449
42136696_306_8803584912225
43576860_306_8803459476321
41019973_385_8803574819681
41222523_278_8803407735649
41222523_1888_8803452726113
41222523_125_8803405638497
41172298_125_8803346590561
41172298_71_8803346623329
44570244_204_8803451972449
44570254_101_8803465407329
44570249_85_8803463736161
41222573_125_8803348130657
41407352_101_8803575638881
43582356_125_8803430083425
41640667_85_8803337972577
44628784_320_8803459279713
43297583_127_8803462359905
43782678_125_8803448204129
43191965_125_8803449219937
41785028_154_8802647845729
41402709_125_8802222746465
40965189_62_8802292149089
42979117_62_8802445962081
43407645_60_8803576916833
43285426_385_8802765220705
43285697_60_8802801396577
41402605_320_8803458263905
41544514_263_8803455380321
41020141_60_8802243717985
42789186_104_8802801724257
43786027_204_8803460328289
43254914_125_8802841799521
41795021_320_8803449973601
40876689_385_8803454102369
42888344_101_8802821319521
42888335_101_8802822105953
41798850_320_8803450760033
37578577_106_8803582782305
43268719_320_8803577867105
34252199_320_8803421334369
40048599_233_8802820959073
40048552_119_8802605443937
40048643_278_8802628250465
40185040_320_8803575016289
41668749_328_8802278026081
41941179_320_8803577015137
43367331_320_8803463211873
43268722_125_8803580816225
43285658_85_8802764467041
38175864_92_8803578260321
41544880_320_8803453578081
41545240_233_8803463080801
41152688_125_8802222451553
43378871_233_8803452103521
41224134_320_8802605247329
39680476_154_8802143611745
41535168_123_8802559273825
42589634_244_8802800380769
41180617_106_8803463342945
44466538_106_8803449678689
41899083_325_8803459115873
41899073_125_8803448990561
41873213_125_8803305892705
42589627_405_8802800085857
40834597_204_8803575049057
44416031_263_8803453807457
42589338_101_8803450825569
43368765_88_8803462261601
43235872_230_8803195431777
43235866_125_8803459083105
41228502_106_8802770529121
43367767_92_8803195104097
41673345_320_8803464883041
40800743_238_8802802346849
43368669_320_8803451644769
41534859_320_8802559306593
39339370_204_8803577539425
41222454_106_8803406556001
41172440_125_8803455970145
37747676_230_8803578653537
40167992_61_8803575409505
41544687_320_8802652892001
42622547_62_8803408259937
41873235_204_8803581209441
41779099_356_8803450727265
43326570_320_8803584781153
43357126_320_8802379803489
42619289_125_8802396449633
41541975_95_8802322787169
41535383_119_8802323245921
35240151_378_8803587795809