UPDATE GLColorSizeArticle;code[unique=true];StartOfLifeDate[dateFormat=dd/MM/yyyy];catalogVersion(catalog(id[default=pcm_catalog]),version[default=Staged])[unique=true]
;44480522;07/06/2017;
;44480524;07/06/2017;
;44480525;07/06/2017;
;44424256;07/06/2017;
;44424152;07/06/2017;
;44424258;07/06/2017;
;44424142;07/06/2017;
;44424146;07/06/2017;
;44424165;07/06/2017;
;44424168;07/06/2017;
;44424170;07/06/2017;
;44424172;07/06/2017;
;44424175;07/06/2017;
;44424176;07/06/2017;
;44424178;07/06/2017;
;44424179;07/06/2017;
;44424180;07/06/2017;
;44424181;07/06/2017;
;44424184;07/06/2017;
;44424188;07/06/2017;
;44424189;07/06/2017;
;44424192;07/06/2017;
;44424229;07/06/2017;
;44424231;07/06/2017;
;44424234;07/06/2017;
;44424267;07/06/2017;
;44424269;07/06/2017;
;44424271;07/06/2017;
;44424274;07/06/2017;
;44424185;07/06/2017;
;44424259;07/06/2017;
;44424226;07/06/2017;
;44424227;07/06/2017;
;44424260;07/06/2017;
;44424209;07/06/2017;
;44424210;07/06/2017;
;44424211;07/06/2017;
;44424212;07/06/2017;
;44424213;07/06/2017;
;44424248;07/06/2017;
;44424205;07/06/2017;
;44424206;07/06/2017;
;44424203;07/06/2017;
;44424204;07/06/2017;
;44424255;07/06/2017;
;44424148;07/06/2017;
;44424154;07/06/2017;
;44424156;07/06/2017;
;44424159;07/06/2017;
;44424163;07/06/2017;
;44424164;07/06/2017;
;44424167;07/06/2017;
;44424169;07/06/2017;
;44424171;07/06/2017;
;44424173;07/06/2017;
;44424177;07/06/2017;
;44424183;07/06/2017;
;44424230;07/06/2017;
;44424233;07/06/2017;
;44424235;07/06/2017;
;44424237;07/06/2017;
;44424239;07/06/2017;
;44424266;07/06/2017;
;44424207;07/06/2017;
;44424249;07/06/2017;
;44424250;07/06/2017;
;44424251;07/06/2017;
;44424252;07/06/2017;
;44424253;07/06/2017;
;44424254;07/06/2017;
;44424186;07/06/2017;
;44424262;07/06/2017;
;44424263;07/06/2017;
;44424150;07/06/2017;
;44424261;07/06/2017;
;44424144;07/06/2017;
;42622294;07/06/2017;
;40792306;07/06/2017;
;40792308;07/06/2017;
;40793936;07/06/2017;
;40793927;07/06/2017;
;40792310;07/06/2017;
;40792312;07/06/2017;
;40792314;07/06/2017;
;40792316;07/06/2017;
;40792330;07/06/2017;
;40792337;07/06/2017;
;40792339;07/06/2017;
;40792341;07/06/2017;
;40793894;07/06/2017;
;40793897;07/06/2017;
;40793899;07/06/2017;
;40793901;07/06/2017;
;40793904;07/06/2017;
;40793906;07/06/2017;
;40793908;07/06/2017;
;40793910;07/06/2017;
;40793913;07/06/2017;
;40793915;07/06/2017;
;40793917;07/06/2017;
;40793919;07/06/2017;
;40793921;07/06/2017;
;40793923;07/06/2017;
;40793925;07/06/2017;
;40793930;07/06/2017;
;40793932;07/06/2017;
;40793934;07/06/2017;
;40268910;07/06/2017;
;40155785;07/06/2017;
;40155786;07/06/2017;
;40133682;07/06/2017;
;40079407;07/06/2017;
;40109695;07/06/2017;
;40109697;07/06/2017;
;40109698;07/06/2017;
;40109700;07/06/2017;
;40109701;07/06/2017;
;40109702;07/06/2017;
;40072685;07/06/2017;
;40072686;07/06/2017;
;40072687;07/06/2017;
;40072708;07/06/2017;
;40072709;07/06/2017;
;40072710;07/06/2017;
;40072711;07/06/2017;
;40072713;07/06/2017;
;40072717;07/06/2017;
;40072718;07/06/2017;
;40072719;07/06/2017;
;40072721;07/06/2017;
;40072722;07/06/2017;
;40072723;07/06/2017;
;40072724;07/06/2017;
;40072674;07/06/2017;
;40072683;07/06/2017;
;40072691;07/06/2017;
;40072692;07/06/2017;
;40072693;07/06/2017;
;40072694;07/06/2017;
;40072695;07/06/2017;
;40072697;07/06/2017;
;40072698;07/06/2017;
;40072699;07/06/2017;
;40072700;07/06/2017;
;40072701;07/06/2017;
;40072702;07/06/2017;
;40072703;07/06/2017;
;40072705;07/06/2017;
;40072706;07/06/2017;
;40072707;07/06/2017;
;40072725;07/06/2017;
;40072726;07/06/2017;
;40072727;07/06/2017;
;40072728;07/06/2017;
;40072730;07/06/2017;
;40072732;07/06/2017;
;40072681;07/06/2017;
;40072682;07/06/2017;
;40072689;07/06/2017;
;40072680;07/06/2017;
;40072673;07/06/2017;
;40072675;07/06/2017;
;40072690;07/06/2017;
;39996823;07/06/2017;
;39996800;07/06/2017;
;39996801;07/06/2017;
;39996802;07/06/2017;
;39996803;07/06/2017;
;39996804;07/06/2017;
;39996811;07/06/2017;
;39996829;07/06/2017;
;39996832;07/06/2017;
;39996833;07/06/2017;
;39996817;07/06/2017;
;39996818;07/06/2017;
;39990901;07/06/2017;
;39990903;07/06/2017;
;39996799;07/06/2017;
;39996834;07/06/2017;
;39996837;07/06/2017;
;39996819;07/06/2017;
;39996820;07/06/2017;
;39996821;07/06/2017;
;39710079;07/06/2017;
;39710078;07/06/2017;
;39710081;07/06/2017;
;39476880;07/06/2017;
;39476881;07/06/2017;
;39476879;07/06/2017;
;39020744;07/06/2017;
;37578019;07/06/2017;
;37578021;07/06/2017;
;37523833;07/06/2017;
;37523803;07/06/2017;
;37523804;07/06/2017;
;37523816;07/06/2017;
;37523821;07/06/2017;
;37523813;07/06/2017;
;37523835;07/06/2017;
;37523807;07/06/2017;
;37523812;07/06/2017;
;37523844;07/06/2017;
;37523799;07/06/2017;
;37523817;07/06/2017;
;37523840;07/06/2017;
;37523851;07/06/2017;
;37523853;07/06/2017;
;37523866;07/06/2017;
;37523869;07/06/2017;
;37523873;07/06/2017;
;37523878;07/06/2017;
;37523882;07/06/2017;
;37523887;07/06/2017;
;37523822;07/06/2017;
;37523894;07/06/2017;
;37523825;07/06/2017;
;37523848;07/06/2017;
;37523890;07/06/2017;
;36097480;07/06/2017;
;36097482;07/06/2017;
;36097485;07/06/2017;
;36097493;07/06/2017;
;36097495;07/06/2017;
;36097497;07/06/2017;
;36097499;07/06/2017;
;36097506;07/06/2017;
;36097507;07/06/2017;
;36097554;07/06/2017;
;36097556;07/06/2017;
;36097559;07/06/2017;
;36097560;07/06/2017;
;36097561;07/06/2017;
;36097563;07/06/2017;
;36097526;07/06/2017;
;36097527;07/06/2017;
;36097528;07/06/2017;
;36097529;07/06/2017;
;36097530;07/06/2017;
;36097531;07/06/2017;
;36097532;07/06/2017;
;36097534;07/06/2017;
;36097535;07/06/2017;
;36097536;07/06/2017;
;36097537;07/06/2017;
;36097538;07/06/2017;
;36097539;07/06/2017;
;36097540;07/06/2017;
;36097542;07/06/2017;
;36097543;07/06/2017;
;36097544;07/06/2017;
;36097478;07/06/2017;
;36097481;07/06/2017;
;36097484;07/06/2017;
;36097510;07/06/2017;
;36097512;07/06/2017;
;36097514;07/06/2017;
;36097516;07/06/2017;
;36097519;07/06/2017;
;36097553;07/06/2017;
;34862545;07/06/2017;
;34862552;07/06/2017;
;34862555;07/06/2017;
;34862560;07/06/2017;
;34862564;07/06/2017;
;34636045;07/06/2017;
;34636052;07/06/2017;
;34636057;07/06/2017;
;34636061;07/06/2017;
;34636069;07/06/2017;
;34636177;07/06/2017;
;34636184;07/06/2017;
;34636190;07/06/2017;
;34636200;07/06/2017;
;34636236;07/06/2017;
;34636072;07/06/2017;
;34636074;07/06/2017;
;34636079;07/06/2017;
;34636083;07/06/2017;
;34636110;07/06/2017;
;34636116;07/06/2017;
;34636121;07/06/2017;
;34636180;07/06/2017;
;34636187;07/06/2017;
;34636194;07/06/2017;
;34636197;07/06/2017;
;34636206;07/06/2017;
;34636208;07/06/2017;
;34636218;07/06/2017;
;34636245;07/06/2017;
;34636203;07/06/2017;
;34636211;07/06/2017;
;34636214;07/06/2017;
;32463084;07/06/2017;
;32463086;07/06/2017;
;32463091;07/06/2017;
;32463095;07/06/2017;
;32463082;07/06/2017;
;32463094;07/06/2017;
;32463096;07/06/2017;
;32463083;07/06/2017;
;31977107;07/06/2017;
;31728242;07/06/2017;
;30759158;07/06/2017;
;30759160;07/06/2017;
;30759162;07/06/2017;
;30759163;07/06/2017;
;30759165;07/06/2017;
;30759166;07/06/2017;
;30759167;07/06/2017;
;30759168;07/06/2017;
;30759169;07/06/2017;
;30759170;07/06/2017;
;30759171;07/06/2017;
;30759172;07/06/2017;
;30759173;07/06/2017;
;30759174;07/06/2017;
;30759175;07/06/2017;
;30759176;07/06/2017;
;30759177;07/06/2017;
;30759178;07/06/2017;
;30759180;07/06/2017;
;30759181;07/06/2017;
;30759183;07/06/2017;
;30759185;07/06/2017;
;30759186;07/06/2017;
;30759188;07/06/2017;
;30759190;07/06/2017;
;30759191;07/06/2017;
;30759193;07/06/2017;
;30759194;07/06/2017;
;30759196;07/06/2017;
;30759201;07/06/2017;
;30759202;07/06/2017;
;30759204;07/06/2017;
;30759205;07/06/2017;
;30759206;07/06/2017;
;30759207;07/06/2017;
;30759208;07/06/2017;
;30759209;07/06/2017;
;30759210;07/06/2017;
;30759214;07/06/2017;
;30759215;07/06/2017;
;30759216;07/06/2017;
;30751558;07/06/2017;
;30751586;07/06/2017;
;30751587;07/06/2017;
;30751589;07/06/2017;
;30759147;07/06/2017;
;30759148;07/06/2017;
;30759222;07/06/2017;
;30759224;07/06/2017;
;30751565;07/06/2017;
;30751585;07/06/2017;
;30751588;07/06/2017;
;30759150;07/06/2017;
;30759152;07/06/2017;
;30751563;07/06/2017;
;30751569;07/06/2017;
;30751584;07/06/2017;
;30759225;07/06/2017;
;30650791;07/06/2017;
;27752577;07/06/2017;
;27752563;07/06/2017;
;27752573;07/06/2017;
;27752584;07/06/2017;
;27752599;07/06/2017;
;27752555;07/06/2017;
;27752571;07/06/2017;
;27752557;07/06/2017;
;27752562;07/06/2017;
;27752564;07/06/2017;
;27752579;07/06/2017;
;27752585;07/06/2017;
;27752587;07/06/2017;
;27752598;07/06/2017;
;27752592;07/06/2017;
;27752594;07/06/2017;
;27752596;07/06/2017;
;27752565;07/06/2017;
;27752570;07/06/2017;
;27752578;07/06/2017;
;27752581;07/06/2017;
;27752582;07/06/2017;
;27752586;07/06/2017;
;27752589;07/06/2017;
;27752601;07/06/2017;
;27752566;07/06/2017;
;27752568;07/06/2017;
;27752597;07/06/2017;
;27752574;07/06/2017;
;27752576;07/06/2017;
;27612756;07/06/2017;
;27612774;07/06/2017;
;27612742;07/06/2017;
;26835533;07/06/2017;
;26835541;07/06/2017;
;26835555;07/06/2017;
;26835519;07/06/2017;
;26835522;07/06/2017;
;26835524;07/06/2017;
;26835526;07/06/2017;
;26835528;07/06/2017;
;26835530;07/06/2017;
;26835531;07/06/2017;
;26835532;07/06/2017;
;26835534;07/06/2017;
;26835535;07/06/2017;
;26835539;07/06/2017;
;26835542;07/06/2017;
;26835554;07/06/2017;
;25824594;07/06/2017;
;24779124;07/06/2017;
;24751601;07/06/2017;
;24751610;07/06/2017;
;24751625;07/06/2017;
;24751616;07/06/2017;
;24751618;07/06/2017;
;24751591;07/06/2017;
;24751599;07/06/2017;
;24751626;07/06/2017;
;24751606;07/06/2017;
;24751623;07/06/2017;
;24751624;07/06/2017;
;24751641;07/06/2017;
;24751642;07/06/2017;
;24751667;07/06/2017;
;24751628;07/06/2017;
;24751600;07/06/2017;
;24751603;07/06/2017;
;24751602;07/06/2017;
;24751613;07/06/2017;
;24751617;07/06/2017;
;24751621;07/06/2017;
;24751639;07/06/2017;
;24751627;07/06/2017;
;24751595;07/06/2017;
;24751607;07/06/2017;
;24751608;07/06/2017;
;24751611;07/06/2017;
;24751614;07/06/2017;
;24751619;07/06/2017;
;24751622;07/06/2017;
;24751640;07/06/2017;
;24751647;07/06/2017;
;24751590;07/06/2017;
;24751593;07/06/2017;
;24751598;07/06/2017;
;23211221;07/06/2017;
;22911573;07/06/2017;
;22303626;07/06/2017;
;22303638;07/06/2017;
;22303639;07/06/2017;
;22303667;07/06/2017;
;22303690;07/06/2017;
;22303696;07/06/2017;
;22303627;07/06/2017;
;22303635;07/06/2017;
;22303640;07/06/2017;
;22303652;07/06/2017;
;22303649;07/06/2017;
;22303669;07/06/2017;
;22303673;07/06/2017;
;22303691;07/06/2017;
;22303699;07/06/2017;
;22303729;07/06/2017;
;22303632;07/06/2017;
;22303642;07/06/2017;
;22303645;07/06/2017;
;22303659;07/06/2017;
;22303665;07/06/2017;
;22303674;07/06/2017;
;22303688;07/06/2017;
;22303693;07/06/2017;
;22303725;07/06/2017;
;22303636;07/06/2017;
;22303653;07/06/2017;
;22303646;07/06/2017;
;22303660;07/06/2017;
;22303662;07/06/2017;
;22303670;07/06/2017;
;22303698;07/06/2017;
;22303701;07/06/2017;
;22303711;07/06/2017;
;22303633;07/06/2017;
;22303643;07/06/2017;
;22303664;07/06/2017;
;22303634;07/06/2017;
;22303637;07/06/2017;
;22303629;07/06/2017;
;22303687;07/06/2017;
;22303694;07/06/2017;
;22303641;07/06/2017;
;22303647;07/06/2017;
;22303661;07/06/2017;
;22303666;07/06/2017;
;22303668;07/06/2017;
;22303672;07/06/2017;
;22303695;07/06/2017;
;22303700;07/06/2017;
;22303704;07/06/2017;
;22303727;07/06/2017;
;22303677;07/06/2017;
;65582017;07/06/2017;
;64127806;07/06/2017;
;64127814;07/06/2017;
;64127822;07/06/2017;
;64128028;07/06/2017;
;64128036;07/06/2017;
;13147640;07/06/2017;
;13149133;07/06/2017;
;13148184;07/06/2017;
;13147806;07/06/2017;
;13147566;07/06/2017;
;13148051;07/06/2017;
;13147780;07/06/2017;
;13147657;07/06/2017;
;13149141;07/06/2017;
;13147590;07/06/2017;
;13148556;07/06/2017;
;78237807;07/06/2017;
;78237906;07/06/2017;
;69789097;07/06/2017;
;69791101;07/06/2017;
;69791523;07/06/2017;
;69794378;07/06/2017;
;69800662;07/06/2017;
;69800688;07/06/2017;
;69800704;07/06/2017;
;69800852;07/06/2017;
;69802437;07/06/2017;
;69802734;07/06/2017;
;69802742;07/06/2017;
;69802858;07/06/2017;
;69802874;07/06/2017;
;69802916;07/06/2017;
;69802965;07/06/2017;
;69803203;07/06/2017;
;69803252;07/06/2017;
;69803393;07/06/2017;
;69803401;07/06/2017;
;69803617;07/06/2017;
;69803625;07/06/2017;
;69803914;07/06/2017;
;69804441;07/06/2017;
;69804631;07/06/2017;
;69802007;07/06/2017;
;69802031;07/06/2017;
;69802064;07/06/2017;
;69802361;07/06/2017;
;69802387;07/06/2017;
;69804748;07/06/2017;
;57937716;07/06/2017;
;24549073;07/06/2017;
;24550436;07/06/2017;
;24549016;07/06/2017;
;24549057;07/06/2017;
;24549099;07/06/2017;
;24549230;07/06/2017;
;24549263;07/06/2017;
;24549115;07/06/2017;
;24549255;07/06/2017;
;24548976;07/06/2017;
;24549065;07/06/2017;
;24549032;07/06/2017;
;24549107;07/06/2017;
;24550022;07/06/2017;
;24548646;07/06/2017;
;24549909;07/06/2017;
;24550964;07/06/2017;
;90053133;07/06/2017;
;87765954;07/06/2017;
;77058808;07/06/2017;
;74797218;07/06/2017;
;74797234;07/06/2017;
;74797242;07/06/2017;
;74797457;07/06/2017;
;74797473;07/06/2017;
;74797523;07/06/2017;
;74797564;07/06/2017;
;74798448;07/06/2017;
;74798570;07/06/2017;
;74798588;07/06/2017;
;74798646;07/06/2017;
;74798661;07/06/2017;
;74798679;07/06/2017;
;74798752;07/06/2017;
;74798760;07/06/2017;
;74798778;07/06/2017;
;74798786;07/06/2017;
;74798794;07/06/2017;
;74798802;07/06/2017;
;74798836;07/06/2017;
;74683814;07/06/2017;
;74683889;07/06/2017;
;74684077;07/06/2017;
;74684267;07/06/2017;
;74684341;07/06/2017;
;74684515;07/06/2017;
;74703539;07/06/2017;
;74703570;07/06/2017;
;74703653;07/06/2017;
;74703695;07/06/2017;
;74703737;07/06/2017;
;74703802;07/06/2017;
;74703919;07/06/2017;
;74703968;07/06/2017;
;74704016;07/06/2017;
;74704131;07/06/2017;
;74704172;07/06/2017;
;74704412;07/06/2017;
;74682592;07/06/2017;
;74682659;07/06/2017;
;74682642;07/06/2017;
;74682857;07/06/2017;
;74682899;07/06/2017;
;74683277;07/06/2017;
;74682782;07/06/2017;
;57387904;07/06/2017;
;29596608;07/06/2017;
;29596590;07/06/2017;
;26826024;07/06/2017;
;26826180;07/06/2017;
;26826198;07/06/2017;
;24552564;07/06/2017;
;24552846;07/06/2017;
;24552598;07/06/2017;
;24552879;07/06/2017;
;24552937;07/06/2017;
;12025441;07/06/2017;
;12026134;07/06/2017;
;12025102;07/06/2017;
;12025797;07/06/2017;
;12026126;07/06/2017;
;12025359;07/06/2017;
;12026225;07/06/2017;
;12025524;07/06/2017;
;12025284;07/06/2017;
;11754421;07/06/2017;
;11754645;07/06/2017;
;11754595;07/06/2017;
;11848561;07/06/2017;
;78066792;07/06/2017;
;78066917;07/06/2017;
;78069465;07/06/2017;
;78069473;07/06/2017;
;78069499;07/06/2017;
;68051085;07/06/2017;
;68051218;07/06/2017;
;68051069;07/06/2017;
;67400127;07/06/2017;
;57466914;07/06/2017;
;57466922;07/06/2017;
;57467045;07/06/2017;
;57467078;07/06/2017;
;57081457;07/06/2017;
;57081499;07/06/2017;
;57081523;07/06/2017;
;57081564;07/06/2017;
;57081051;07/06/2017;
;57081069;07/06/2017;
;57081093;07/06/2017;
;57081119;07/06/2017;
;57081127;07/06/2017;
;57081135;07/06/2017;
;57081150;07/06/2017;
;57081168;07/06/2017;
;57081176;07/06/2017;
;45369899;07/06/2017;
;38203600;07/06/2017;
;25431693;07/06/2017;
;25430570;07/06/2017;
;23098353;07/06/2017;
;23098601;07/06/2017;
;12355608;07/06/2017;
;12356192;07/06/2017;
;12355368;07/06/2017;
;12355772;07/06/2017;
;12356119;07/06/2017;
;12355863;07/06/2017;
;12356028;07/06/2017;
;12355194;07/06/2017;
;12335790;07/06/2017;
;98818735;07/06/2017;
;98512635;07/06/2017;
;98512643;07/06/2017;
;98512668;07/06/2017;
;98512676;07/06/2017;
;98512692;07/06/2017;
;98512718;07/06/2017;
;94447117;07/06/2017;
;94447174;07/06/2017;
;94447190;07/06/2017;
;94447208;07/06/2017;
;52996493;07/06/2017;
;52996519;07/06/2017;
;52996535;07/06/2017;
;52997400;07/06/2017;
;52997426;07/06/2017;
;52997871;07/06/2017;
;52998150;07/06/2017;
;53003984;07/06/2017;
;27660646;07/06/2017;
;29815503;07/06/2017;
;29815545;07/06/2017;
;29815511;07/06/2017;
;29815537;07/06/2017;
;29815552;07/06/2017;
;29815560;07/06/2017;
;85876027;07/06/2017;
;85876076;07/06/2017;
;93268159;07/06/2017;
;93268142;07/06/2017;
;84046085;07/06/2017;
;84046002;07/06/2017;
;84046077;07/06/2017;
;15154412;07/06/2017;
;15154644;07/06/2017;
;15154396;07/06/2017;
;15154313;07/06/2017;
;15154628;07/06/2017;
;15154370;07/06/2017;
;15154479;07/06/2017;
;15155039;07/06/2017;
;15154503;07/06/2017;
;15154354;07/06/2017;
;95698213;07/06/2017;
;95699294;07/06/2017;
;95699930;07/06/2017;
;61341269;07/06/2017;
;60774668;07/06/2017;
;60774973;07/06/2017;
;42789644;07/06/2017;
;31656739;07/06/2017;
;86864071;07/06/2017;
;86864147;07/06/2017;
;28167088;07/06/2017;
;28169530;07/06/2017;
;28171056;07/06/2017;
;28172914;07/06/2017;
;28173938;07/06/2017;
;28174431;07/06/2017;
;28174894;07/06/2017;
;28145852;07/06/2017;
;28174852;07/06/2017;
;90697673;07/06/2017;
;34966382;07/06/2017;
;32013815;07/06/2017;
;24554461;07/06/2017;
;32091936;07/06/2017;
;19121557;07/06/2017;
;19124536;07/06/2017;
;97211460;07/06/2017;
;77190700;07/06/2017;
;77190718;07/06/2017;
;77190726;07/06/2017;
;77190940;07/06/2017;
;77190957;07/06/2017;
;96721881;07/06/2017;
;96723309;07/06/2017;
;96724521;07/06/2017;
;96724794;07/06/2017;
;96725197;07/06/2017;
;71403935;07/06/2017;
;48168199;07/06/2017;
;14436240;07/06/2017;
;90541137;07/06/2017;
;67645549;07/06/2017;
;67652222;07/06/2017;
;67659276;07/06/2017;
;31462757;07/06/2017;
;98687239;07/06/2017;
;98688443;07/06/2017;
;98688591;07/06/2017;
;98688955;07/06/2017;
;83973446;07/06/2017;
;83562009;07/06/2017;
;83562041;07/06/2017;
;79530697;07/06/2017;
;59788158;07/06/2017;
;59788166;07/06/2017;
;59794107;07/06/2017;
;48779276;07/06/2017;
;48779326;07/06/2017;
;48779342;07/06/2017;
;48780092;07/06/2017;
;48780126;07/06/2017;
;48780175;07/06/2017;
;17223934;07/06/2017;
;17065285;07/06/2017;
;17065368;07/06/2017;
;17102450;07/06/2017;
;17065392;07/06/2017;
;17065335;07/06/2017;
;17065343;07/06/2017;
;17065293;07/06/2017;
;17065350;07/06/2017;
;14976096;07/06/2017;
;14976088;07/06/2017;
;14976070;07/06/2017;
;41518242;07/06/2017;
;41533134;07/06/2017;
;38787073;07/06/2017;
;35718998;07/06/2017;
;35704295;07/06/2017;
;35710961;07/06/2017;
;29596798;07/06/2017;
;29584422;07/06/2017;
;29584380;07/06/2017;
;29584448;07/06/2017;
;25088600;07/06/2017;
;24978264;07/06/2017;
;24978256;07/06/2017;
;19148022;07/06/2017;
;17984121;07/06/2017;
;18067967;07/06/2017;
;18067975;07/06/2017;
;94905684;07/06/2017;
;94905676;07/06/2017;
;94905668;07/06/2017;
;94031556;07/06/2017;
;94040656;07/06/2017;
;94031564;07/06/2017;
;84249275;07/06/2017;
;84249309;07/06/2017;
;79213724;07/06/2017;
;79213740;07/06/2017;
;79216982;07/06/2017;
;79216990;07/06/2017;
;79205084;07/06/2017;
;20804779;07/06/2017;
;20837142;07/06/2017;
;69404150;07/06/2017;
;69404168;07/06/2017;
;55320246;07/06/2017;
;34111344;07/06/2017;
;31291354;07/06/2017;
;42276279;07/06/2017;
;39342084;07/06/2017;
;32887788;07/06/2017;
;32887556;07/06/2017;
;32887531;07/06/2017;
;32887549;07/06/2017;
;26803890;07/06/2017;
;26803916;07/06/2017;
;26803924;07/06/2017;
;20658092;07/06/2017;
;17498007;07/06/2017;
;17498049;07/06/2017;
;17498031;07/06/2017;
;90714791;07/06/2017;
;90714650;07/06/2017;
;90714692;07/06/2017;
;90714726;07/06/2017;
;90714775;07/06/2017;
;90714783;07/06/2017;
;86901915;07/06/2017;
;76751247;07/06/2017;
;76751221;07/06/2017;
;73202327;07/06/2017;
;73202335;07/06/2017;
;73205379;07/06/2017;
;73205387;07/06/2017;
;73207953;07/06/2017;
;73202319;07/06/2017;
;73118325;07/06/2017;
;73133274;07/06/2017;
;73163990;07/06/2017;
;73174724;07/06/2017;
;73118648;07/06/2017;
;73164246;07/06/2017;
;73138950;07/06/2017;
;73138968;07/06/2017;
;73155095;07/06/2017;
;73155103;07/06/2017;
;73159840;07/06/2017;
;73159857;07/06/2017;
;73174716;07/06/2017;
;73180838;07/06/2017;
;73183279;07/06/2017;
;73183287;07/06/2017;
;73187304;07/06/2017;
;73190555;07/06/2017;
;73080277;07/06/2017;
;73081341;07/06/2017;
;73050718;07/06/2017;
;73095192;07/06/2017;
;73080251;07/06/2017;
