UPDATE RmsArticle;ug[unique=true];OnlineDate[dateFormat=dd/MM/yyyy]
;44480522;25/04/2017;
;44480524;25/04/2017;
;44480525;25/04/2017;
;44424256;25/04/2017;
;44424152;25/04/2017;
;44424258;25/04/2017;
;44424142;25/04/2017;
;44424146;25/04/2017;
;44424165;25/04/2017;
;44424168;25/04/2017;
;44424170;25/04/2017;
;44424172;25/04/2017;
;44424175;25/04/2017;
;44424176;25/04/2017;
;44424178;25/04/2017;
;44424179;25/04/2017;
;44424180;25/04/2017;
;44424181;25/04/2017;
;44424184;25/04/2017;
;44424188;25/04/2017;
;44424189;25/04/2017;
;44424192;25/04/2017;
;44424229;25/04/2017;
;44424231;25/04/2017;
;44424234;25/04/2017;
;44424267;25/04/2017;
;44424269;25/04/2017;
;44424271;25/04/2017;
;44424274;25/04/2017;
;44424185;25/04/2017;
;44424259;25/04/2017;
;44424226;25/04/2017;
;44424227;25/04/2017;
;44424260;25/04/2017;
;44424209;25/04/2017;
;44424210;25/04/2017;
;44424211;25/04/2017;
;44424212;25/04/2017;
;44424213;25/04/2017;
;44424248;25/04/2017;
;44424205;25/04/2017;
;44424206;25/04/2017;
;44424203;25/04/2017;
;44424204;25/04/2017;
;44424255;25/04/2017;
;44424148;25/04/2017;
;44424154;25/04/2017;
;44424156;25/04/2017;
;44424159;25/04/2017;
;44424163;25/04/2017;
;44424164;25/04/2017;
;44424167;25/04/2017;
;44424169;25/04/2017;
;44424171;25/04/2017;
;44424173;25/04/2017;
;44424177;25/04/2017;
;44424183;25/04/2017;
;44424230;25/04/2017;
;44424233;25/04/2017;
;44424235;25/04/2017;
;44424237;25/04/2017;
;44424239;25/04/2017;
;44424266;25/04/2017;
;44424207;25/04/2017;
;44424249;25/04/2017;
;44424250;25/04/2017;
;44424251;25/04/2017;
;44424252;25/04/2017;
;44424253;25/04/2017;
;44424254;25/04/2017;
;44424186;25/04/2017;
;44424262;25/04/2017;
;44424263;25/04/2017;
;44424150;25/04/2017;
;44424261;25/04/2017;
;44424144;25/04/2017;
;42622294;25/04/2017;
;40792306;25/04/2017;
;40792308;25/04/2017;
;40793936;25/04/2017;
;40793927;25/04/2017;
;40792310;25/04/2017;
;40792312;25/04/2017;
;40792314;25/04/2017;
;40792316;25/04/2017;
;40792330;25/04/2017;
;40792337;25/04/2017;
;40792339;25/04/2017;
;40792341;25/04/2017;
;40793894;25/04/2017;
;40793897;25/04/2017;
;40793899;25/04/2017;
;40793901;25/04/2017;
;40793904;25/04/2017;
;40793906;25/04/2017;
;40793908;25/04/2017;
;40793910;25/04/2017;
;40793913;25/04/2017;
;40793915;25/04/2017;
;40793917;25/04/2017;
;40793919;25/04/2017;
;40793921;25/04/2017;
;40793923;25/04/2017;
;40793925;25/04/2017;
;40793930;25/04/2017;
;40793932;25/04/2017;
;40793934;25/04/2017;
;40268910;25/04/2017;
;40155785;25/04/2017;
;40155786;25/04/2017;
;40133682;25/04/2017;
;40079407;25/04/2017;
;40109695;25/04/2017;
;40109697;25/04/2017;
;40109698;25/04/2017;
;40109700;25/04/2017;
;40109701;25/04/2017;
;40109702;25/04/2017;
;40072685;25/04/2017;
;40072686;25/04/2017;
;40072687;25/04/2017;
;40072708;25/04/2017;
;40072709;25/04/2017;
;40072710;25/04/2017;
;40072711;25/04/2017;
;40072713;25/04/2017;
;40072717;25/04/2017;
;40072718;25/04/2017;
;40072719;25/04/2017;
;40072721;25/04/2017;
;40072722;25/04/2017;
;40072723;25/04/2017;
;40072724;25/04/2017;
;40072674;25/04/2017;
;40072683;25/04/2017;
;40072691;25/04/2017;
;40072692;25/04/2017;
;40072693;25/04/2017;
;40072694;25/04/2017;
;40072695;25/04/2017;
;40072697;25/04/2017;
;40072698;25/04/2017;
;40072699;25/04/2017;
;40072700;25/04/2017;
;40072701;25/04/2017;
;40072702;25/04/2017;
;40072703;25/04/2017;
;40072705;25/04/2017;
;40072706;25/04/2017;
;40072707;25/04/2017;
;40072725;25/04/2017;
;40072726;25/04/2017;
;40072727;25/04/2017;
;40072728;25/04/2017;
;40072730;25/04/2017;
;40072732;25/04/2017;
;40072681;25/04/2017;
;40072682;25/04/2017;
;40072689;25/04/2017;
;40072680;25/04/2017;
;40072673;25/04/2017;
;40072675;25/04/2017;
;40072690;25/04/2017;
;39996823;25/04/2017;
;39996800;25/04/2017;
;39996801;25/04/2017;
;39996802;25/04/2017;
;39996803;25/04/2017;
;39996804;25/04/2017;
;39996811;25/04/2017;
;39996829;25/04/2017;
;39996832;25/04/2017;
;39996833;25/04/2017;
;39996817;25/04/2017;
;39996818;25/04/2017;
;39990901;25/04/2017;
;39990903;25/04/2017;
;39996799;25/04/2017;
;39996834;25/04/2017;
;39996837;25/04/2017;
;39996819;25/04/2017;
;39996820;25/04/2017;
;39996821;25/04/2017;
;39710079;25/04/2017;
;39710078;25/04/2017;
;39710081;25/04/2017;
;39476880;25/04/2017;
;39476881;25/04/2017;
;39476879;25/04/2017;
;39020744;25/04/2017;
;37578019;25/04/2017;
;37578021;25/04/2017;
;37523833;25/04/2017;
;37523803;25/04/2017;
;37523804;25/04/2017;
;37523816;25/04/2017;
;37523821;25/04/2017;
;37523813;25/04/2017;
;37523835;25/04/2017;
;37523807;25/04/2017;
;37523812;25/04/2017;
;37523844;25/04/2017;
;37523799;25/04/2017;
;37523817;25/04/2017;
;37523840;25/04/2017;
;37523851;25/04/2017;
;37523853;25/04/2017;
;37523866;25/04/2017;
;37523869;25/04/2017;
;37523873;25/04/2017;
;37523878;25/04/2017;
;37523882;25/04/2017;
;37523887;25/04/2017;
;37523822;25/04/2017;
;37523894;25/04/2017;
;37523825;25/04/2017;
;37523848;25/04/2017;
;37523890;25/04/2017;
;36097480;25/04/2017;
;36097482;25/04/2017;
;36097485;25/04/2017;
;36097493;25/04/2017;
;36097495;25/04/2017;
;36097497;25/04/2017;
;36097499;25/04/2017;
;36097506;25/04/2017;
;36097507;25/04/2017;
;36097554;25/04/2017;
;36097556;25/04/2017;
;36097559;25/04/2017;
;36097560;25/04/2017;
;36097561;25/04/2017;
;36097563;25/04/2017;
;36097526;25/04/2017;
;36097527;25/04/2017;
;36097528;25/04/2017;
;36097529;25/04/2017;
;36097530;25/04/2017;
;36097531;25/04/2017;
;36097532;25/04/2017;
;36097534;25/04/2017;
;36097535;25/04/2017;
;36097536;25/04/2017;
;36097537;25/04/2017;
;36097538;25/04/2017;
;36097539;25/04/2017;
;36097540;25/04/2017;
;36097542;25/04/2017;
;36097543;25/04/2017;
;36097544;25/04/2017;
;36097478;25/04/2017;
;36097481;25/04/2017;
;36097484;25/04/2017;
;36097510;25/04/2017;
;36097512;25/04/2017;
;36097514;25/04/2017;
;36097516;25/04/2017;
;36097519;25/04/2017;
;36097553;25/04/2017;
;34862545;25/04/2017;
;34862552;25/04/2017;
;34862555;25/04/2017;
;34862560;25/04/2017;
;34862564;25/04/2017;
;34636045;25/04/2017;
;34636052;25/04/2017;
;34636057;25/04/2017;
;34636061;25/04/2017;
;34636069;25/04/2017;
;34636177;25/04/2017;
;34636184;25/04/2017;
;34636190;25/04/2017;
;34636200;25/04/2017;
;34636236;25/04/2017;
;34636072;25/04/2017;
;34636074;25/04/2017;
;34636079;25/04/2017;
;34636083;25/04/2017;
;34636110;25/04/2017;
;34636116;25/04/2017;
;34636121;25/04/2017;
;34636180;25/04/2017;
;34636187;25/04/2017;
;34636194;25/04/2017;
;34636197;25/04/2017;
;34636206;25/04/2017;
;34636208;25/04/2017;
;34636218;25/04/2017;
;34636245;25/04/2017;
;34636203;25/04/2017;
;34636211;25/04/2017;
;34636214;25/04/2017;
;32463084;25/04/2017;
;32463086;25/04/2017;
;32463091;25/04/2017;
;32463095;25/04/2017;
;32463082;25/04/2017;
;32463094;25/04/2017;
;32463096;25/04/2017;
;32463083;25/04/2017;
;31977107;25/04/2017;
;31728242;25/04/2017;
;30759158;25/04/2017;
;30759160;25/04/2017;
;30759162;25/04/2017;
;30759163;25/04/2017;
;30759165;25/04/2017;
;30759166;25/04/2017;
;30759167;25/04/2017;
;30759168;25/04/2017;
;30759169;25/04/2017;
;30759170;25/04/2017;
;30759171;25/04/2017;
;30759172;25/04/2017;
;30759173;25/04/2017;
;30759174;25/04/2017;
;30759175;25/04/2017;
;30759176;25/04/2017;
;30759177;25/04/2017;
;30759178;25/04/2017;
;30759180;25/04/2017;
;30759181;25/04/2017;
;30759183;25/04/2017;
;30759185;25/04/2017;
;30759186;25/04/2017;
;30759188;25/04/2017;
;30759190;25/04/2017;
;30759191;25/04/2017;
;30759193;25/04/2017;
;30759194;25/04/2017;
;30759196;25/04/2017;
;30759201;25/04/2017;
;30759202;25/04/2017;
;30759204;25/04/2017;
;30759205;25/04/2017;
;30759206;25/04/2017;
;30759207;25/04/2017;
;30759208;25/04/2017;
;30759209;25/04/2017;
;30759210;25/04/2017;
;30759214;25/04/2017;
;30759215;25/04/2017;
;30759216;25/04/2017;
;30751558;25/04/2017;
;30751586;25/04/2017;
;30751587;25/04/2017;
;30751589;25/04/2017;
;30759147;25/04/2017;
;30759148;25/04/2017;
;30759222;25/04/2017;
;30759224;25/04/2017;
;30751565;25/04/2017;
;30751585;25/04/2017;
;30751588;25/04/2017;
;30759150;25/04/2017;
;30759152;25/04/2017;
;30751563;25/04/2017;
;30751569;25/04/2017;
;30751584;25/04/2017;
;30759225;25/04/2017;
;30650791;25/04/2017;
;27752577;25/04/2017;
;27752563;25/04/2017;
;27752573;25/04/2017;
;27752584;25/04/2017;
;27752599;25/04/2017;
;27752555;25/04/2017;
;27752571;25/04/2017;
;27752557;25/04/2017;
;27752562;25/04/2017;
;27752564;25/04/2017;
;27752579;25/04/2017;
;27752585;25/04/2017;
;27752587;25/04/2017;
;27752598;25/04/2017;
;27752592;25/04/2017;
;27752594;25/04/2017;
;27752596;25/04/2017;
;27752565;25/04/2017;
;27752570;25/04/2017;
;27752578;25/04/2017;
;27752581;25/04/2017;
;27752582;25/04/2017;
;27752586;25/04/2017;
;27752589;25/04/2017;
;27752601;25/04/2017;
;27752566;25/04/2017;
;27752568;25/04/2017;
;27752597;25/04/2017;
;27752574;25/04/2017;
;27752576;25/04/2017;
;27612756;25/04/2017;
;27612774;25/04/2017;
;27612742;25/04/2017;
;26835533;25/04/2017;
;26835541;25/04/2017;
;26835555;25/04/2017;
;26835519;25/04/2017;
;26835522;25/04/2017;
;26835524;25/04/2017;
;26835526;25/04/2017;
;26835528;25/04/2017;
;26835530;25/04/2017;
;26835531;25/04/2017;
;26835532;25/04/2017;
;26835534;25/04/2017;
;26835535;25/04/2017;
;26835539;25/04/2017;
;26835542;25/04/2017;
;26835554;25/04/2017;
;25824594;25/04/2017;
;24779124;25/04/2017;
;24751601;25/04/2017;
;24751610;25/04/2017;
;24751625;25/04/2017;
;24751616;25/04/2017;
;24751618;25/04/2017;
;24751591;25/04/2017;
;24751599;25/04/2017;
;24751626;25/04/2017;
;24751606;25/04/2017;
;24751623;25/04/2017;
;24751624;25/04/2017;
;24751641;25/04/2017;
;24751642;25/04/2017;
;24751667;25/04/2017;
;24751628;25/04/2017;
;24751600;25/04/2017;
;24751603;25/04/2017;
;24751602;25/04/2017;
;24751613;25/04/2017;
;24751617;25/04/2017;
;24751621;25/04/2017;
;24751639;25/04/2017;
;24751627;25/04/2017;
;24751595;25/04/2017;
;24751607;25/04/2017;
;24751608;25/04/2017;
;24751611;25/04/2017;
;24751614;25/04/2017;
;24751619;25/04/2017;
;24751622;25/04/2017;
;24751640;25/04/2017;
;24751647;25/04/2017;
;24751590;25/04/2017;
;24751593;25/04/2017;
;24751598;25/04/2017;
;23211221;25/04/2017;
;22911573;25/04/2017;
;22303626;25/04/2017;
;22303638;25/04/2017;
;22303639;25/04/2017;
;22303667;25/04/2017;
;22303690;25/04/2017;
;22303696;25/04/2017;
;22303627;25/04/2017;
;22303635;25/04/2017;
;22303640;25/04/2017;
;22303652;25/04/2017;
;22303649;25/04/2017;
;22303669;25/04/2017;
;22303673;25/04/2017;
;22303691;25/04/2017;
;22303699;25/04/2017;
;22303729;25/04/2017;
;22303632;25/04/2017;
;22303642;25/04/2017;
;22303645;25/04/2017;
;22303659;25/04/2017;
;22303665;25/04/2017;
;22303674;25/04/2017;
;22303688;25/04/2017;
;22303693;25/04/2017;
;22303725;25/04/2017;
;22303636;25/04/2017;
;22303653;25/04/2017;
;22303646;25/04/2017;
;22303660;25/04/2017;
;22303662;25/04/2017;
;22303670;25/04/2017;
;22303698;25/04/2017;
;22303701;25/04/2017;
;22303711;25/04/2017;
;22303633;25/04/2017;
;22303643;25/04/2017;
;22303664;25/04/2017;
;22303634;25/04/2017;
;22303637;25/04/2017;
;22303629;25/04/2017;
;22303687;25/04/2017;
;22303694;25/04/2017;
;22303641;25/04/2017;
;22303647;25/04/2017;
;22303661;25/04/2017;
;22303666;25/04/2017;
;22303668;25/04/2017;
;22303672;25/04/2017;
;22303695;25/04/2017;
;22303700;25/04/2017;
;22303704;25/04/2017;
;22303727;25/04/2017;
;22303677;25/04/2017;
;65582017;25/04/2017;
;64127806;25/04/2017;
;64127814;25/04/2017;
;64127822;25/04/2017;
;64128028;25/04/2017;
;64128036;25/04/2017;
;13147640;25/04/2017;
;13149133;25/04/2017;
;13148184;25/04/2017;
;13147806;25/04/2017;
;13147566;25/04/2017;
;13148051;25/04/2017;
;13147780;25/04/2017;
;13147657;25/04/2017;
;13149141;25/04/2017;
;13147590;25/04/2017;
;13148556;25/04/2017;
;78237807;25/04/2017;
;78237906;25/04/2017;
;69789097;25/04/2017;
;69791101;25/04/2017;
;69791523;25/04/2017;
;69794378;25/04/2017;
;69800662;25/04/2017;
;69800688;25/04/2017;
;69800704;25/04/2017;
;69800852;25/04/2017;
;69802437;25/04/2017;
;69802734;25/04/2017;
;69802742;25/04/2017;
;69802858;25/04/2017;
;69802874;25/04/2017;
;69802916;25/04/2017;
;69802965;25/04/2017;
;69803203;25/04/2017;
;69803252;25/04/2017;
;69803393;25/04/2017;
;69803401;25/04/2017;
;69803617;25/04/2017;
;69803625;25/04/2017;
;69803914;25/04/2017;
;69804441;25/04/2017;
;69804631;25/04/2017;
;69802007;25/04/2017;
;69802031;25/04/2017;
;69802064;25/04/2017;
;69802361;25/04/2017;
;69802387;25/04/2017;
;69804748;25/04/2017;
;57937716;25/04/2017;
;24549073;25/04/2017;
;24550436;25/04/2017;
;24549016;25/04/2017;
;24549057;25/04/2017;
;24549099;25/04/2017;
;24549230;25/04/2017;
;24549263;25/04/2017;
;24549115;25/04/2017;
;24549255;25/04/2017;
;24548976;25/04/2017;
;24549065;25/04/2017;
;24549032;25/04/2017;
;24549107;25/04/2017;
;24550022;25/04/2017;
;24548646;25/04/2017;
;24549909;25/04/2017;
;24550964;25/04/2017;
;90053133;25/04/2017;
;87765954;25/04/2017;
;77058808;25/04/2017;
;74797218;25/04/2017;
;74797234;25/04/2017;
;74797242;25/04/2017;
;74797457;25/04/2017;
;74797473;25/04/2017;
;74797523;25/04/2017;
;74797564;25/04/2017;
;74798448;25/04/2017;
;74798570;25/04/2017;
;74798588;25/04/2017;
;74798646;25/04/2017;
;74798661;25/04/2017;
;74798679;25/04/2017;
;74798752;25/04/2017;
;74798760;25/04/2017;
;74798778;25/04/2017;
;74798786;25/04/2017;
;74798794;25/04/2017;
;74798802;25/04/2017;
;74798836;25/04/2017;
;74683814;25/04/2017;
;74683889;25/04/2017;
;74684077;25/04/2017;
;74684267;25/04/2017;
;74684341;25/04/2017;
;74684515;25/04/2017;
;74703539;25/04/2017;
;74703570;25/04/2017;
;74703653;25/04/2017;
;74703695;25/04/2017;
;74703737;25/04/2017;
;74703802;25/04/2017;
;74703919;25/04/2017;
;74703968;25/04/2017;
;74704016;25/04/2017;
;74704131;25/04/2017;
;74704172;25/04/2017;
;74704412;25/04/2017;
;74682592;25/04/2017;
;74682659;25/04/2017;
;74682642;25/04/2017;
;74682857;25/04/2017;
;74682899;25/04/2017;
;74683277;25/04/2017;
;74682782;25/04/2017;
;57387904;25/04/2017;
;29596608;25/04/2017;
;29596590;25/04/2017;
;26826024;25/04/2017;
;26826180;25/04/2017;
;26826198;25/04/2017;
;24552564;25/04/2017;
;24552846;25/04/2017;
;24552598;25/04/2017;
;24552879;25/04/2017;
;24552937;25/04/2017;
;12025441;25/04/2017;
;12026134;25/04/2017;
;12025102;25/04/2017;
;12025797;25/04/2017;
;12026126;25/04/2017;
;12025359;25/04/2017;
;12026225;25/04/2017;
;12025524;25/04/2017;
;12025284;25/04/2017;
;11754421;25/04/2017;
;11754645;25/04/2017;
;11754595;25/04/2017;
;11848561;25/04/2017;
;78066792;25/04/2017;
;78066917;25/04/2017;
;78069465;25/04/2017;
;78069473;25/04/2017;
;78069499;25/04/2017;
;68051085;25/04/2017;
;68051218;25/04/2017;
;68051069;25/04/2017;
;67400127;25/04/2017;
;57466914;25/04/2017;
;57466922;25/04/2017;
;57467045;25/04/2017;
;57467078;25/04/2017;
;57081457;25/04/2017;
;57081499;25/04/2017;
;57081523;25/04/2017;
;57081564;25/04/2017;
;57081051;25/04/2017;
;57081069;25/04/2017;
;57081093;25/04/2017;
;57081119;25/04/2017;
;57081127;25/04/2017;
;57081135;25/04/2017;
;57081150;25/04/2017;
;57081168;25/04/2017;
;57081176;25/04/2017;
;45369899;25/04/2017;
;38203600;25/04/2017;
;25431693;25/04/2017;
;25430570;25/04/2017;
;23098353;25/04/2017;
;23098601;25/04/2017;
;12355608;25/04/2017;
;12356192;25/04/2017;
;12355368;25/04/2017;
;12355772;25/04/2017;
;12356119;25/04/2017;
;12355863;25/04/2017;
;12356028;25/04/2017;
;12355194;25/04/2017;
;12335790;25/04/2017;
;98818735;25/04/2017;
;98512635;25/04/2017;
;98512643;25/04/2017;
;98512668;25/04/2017;
;98512676;25/04/2017;
;98512692;25/04/2017;
;98512718;25/04/2017;
;94447117;25/04/2017;
;94447174;25/04/2017;
;94447190;25/04/2017;
;94447208;25/04/2017;
;52996493;25/04/2017;
;52996519;25/04/2017;
;52996535;25/04/2017;
;52997400;25/04/2017;
;52997426;25/04/2017;
;52997871;25/04/2017;
;52998150;25/04/2017;
;53003984;25/04/2017;
;27660646;25/04/2017;
;29815503;25/04/2017;
;29815545;25/04/2017;
;29815511;25/04/2017;
;29815537;25/04/2017;
;29815552;25/04/2017;
;29815560;25/04/2017;
;85876027;25/04/2017;
;85876076;25/04/2017;
;93268159;25/04/2017;
;93268142;25/04/2017;
;84046085;25/04/2017;
;84046002;25/04/2017;
;84046077;25/04/2017;
;15154412;25/04/2017;
;15154644;25/04/2017;
;15154396;25/04/2017;
;15154313;25/04/2017;
;15154628;25/04/2017;
;15154370;25/04/2017;
;15154479;25/04/2017;
;15155039;25/04/2017;
;15154503;25/04/2017;
;15154354;25/04/2017;
;95698213;25/04/2017;
;95699294;25/04/2017;
;95699930;25/04/2017;
;61341269;25/04/2017;
;60774668;25/04/2017;
;60774973;25/04/2017;
;42789644;25/04/2017;
;31656739;25/04/2017;
;86864071;25/04/2017;
;86864147;25/04/2017;
;28167088;25/04/2017;
;28169530;25/04/2017;
;28171056;25/04/2017;
;28172914;25/04/2017;
;28173938;25/04/2017;
;28174431;25/04/2017;
;28174894;25/04/2017;
;28145852;25/04/2017;
;28174852;25/04/2017;
;90697673;25/04/2017;
;34966382;25/04/2017;
;32013815;25/04/2017;
;24554461;25/04/2017;
;32091936;25/04/2017;
;19121557;25/04/2017;
;19124536;25/04/2017;
;97211460;25/04/2017;
;77190700;25/04/2017;
;77190718;25/04/2017;
;77190726;25/04/2017;
;77190940;25/04/2017;
;77190957;25/04/2017;
;96721881;25/04/2017;
;96723309;25/04/2017;
;96724521;25/04/2017;
;96724794;25/04/2017;
;96725197;25/04/2017;
;71403935;25/04/2017;
;48168199;25/04/2017;
;14436240;25/04/2017;
;90541137;25/04/2017;
;67645549;25/04/2017;
;67652222;25/04/2017;
;67659276;25/04/2017;
;31462757;25/04/2017;
;98687239;25/04/2017;
;98688443;25/04/2017;
;98688591;25/04/2017;
;98688955;25/04/2017;
;83973446;25/04/2017;
;83562009;25/04/2017;
;83562041;25/04/2017;
;79530697;25/04/2017;
;59788158;25/04/2017;
;59788166;25/04/2017;
;59794107;25/04/2017;
;48779276;25/04/2017;
;48779326;25/04/2017;
;48779342;25/04/2017;
;48780092;25/04/2017;
;48780126;25/04/2017;
;48780175;25/04/2017;
;17223934;25/04/2017;
;17065285;25/04/2017;
;17065368;25/04/2017;
;17102450;25/04/2017;
;17065392;25/04/2017;
;17065335;25/04/2017;
;17065343;25/04/2017;
;17065293;25/04/2017;
;17065350;25/04/2017;
;14976096;25/04/2017;
;14976088;25/04/2017;
;14976070;25/04/2017;
;41518242;25/04/2017;
;41533134;25/04/2017;
;38787073;25/04/2017;
;35718998;25/04/2017;
;35704295;25/04/2017;
;35710961;25/04/2017;
;29596798;25/04/2017;
;29584422;25/04/2017;
;29584380;25/04/2017;
;29584448;25/04/2017;
;25088600;25/04/2017;
;24978264;25/04/2017;
;24978256;25/04/2017;
;19148022;25/04/2017;
;17984121;25/04/2017;
;18067967;25/04/2017;
;18067975;25/04/2017;
;94905684;25/04/2017;
;94905676;25/04/2017;
;94905668;25/04/2017;
;94031556;25/04/2017;
;94040656;25/04/2017;
;94031564;25/04/2017;
;84249275;25/04/2017;
;84249309;25/04/2017;
;79213724;25/04/2017;
;79213740;25/04/2017;
;79216982;25/04/2017;
;79216990;25/04/2017;
;79205084;25/04/2017;
;20804779;25/04/2017;
;20837142;25/04/2017;
;69404150;25/04/2017;
;69404168;25/04/2017;
;55320246;25/04/2017;
;34111344;25/04/2017;
;31291354;25/04/2017;
;42276279;25/04/2017;
;39342084;25/04/2017;
;32887788;25/04/2017;
;32887556;25/04/2017;
;32887531;25/04/2017;
;32887549;25/04/2017;
;26803890;25/04/2017;
;26803916;25/04/2017;
;26803924;25/04/2017;
;20658092;25/04/2017;
;17498007;25/04/2017;
;17498049;25/04/2017;
;17498031;25/04/2017;
;90714791;25/04/2017;
;90714650;25/04/2017;
;90714692;25/04/2017;
;90714726;25/04/2017;
;90714775;25/04/2017;
;90714783;25/04/2017;
;86901915;25/04/2017;
;76751247;25/04/2017;
;76751221;25/04/2017;
;73202327;25/04/2017;
;73202335;25/04/2017;
;73205379;25/04/2017;
;73205387;25/04/2017;
;73207953;25/04/2017;
;73202319;25/04/2017;
;73118325;25/04/2017;
;73133274;25/04/2017;
;73163990;25/04/2017;
;73174724;25/04/2017;
;73118648;25/04/2017;
;73164246;25/04/2017;
;73138950;25/04/2017;
;73138968;25/04/2017;
;73155095;25/04/2017;
;73155103;25/04/2017;
;73159840;25/04/2017;
;73159857;25/04/2017;
;73174716;25/04/2017;
;73180838;25/04/2017;
;73183279;25/04/2017;
;73183287;25/04/2017;
;73187304;25/04/2017;
;73190555;25/04/2017;
;73080277;25/04/2017;
;73081341;25/04/2017;
;73050718;25/04/2017;
;73095192;25/04/2017;
;73080251;25/04/2017;
