'96724646',
'96724794',
'96724521',
'96723903',
'96723309',
'96723028',
'47875592',
'40072684',
'69800449',
'40072714',
'48064175',
'48064159',
'48064146',
'48064165',
'48064152',
'47605802',
'31456239',
'13214432',
'52996527',
'52996535',
'40792339',
'40792338',
'36097562',
'36097563',
'90460452',
'90541137',
'27752593',
'27752594',
'28171056',
'28170900',
'36097538',
'45369873',
'44424177',
'44424162',
'48064149',
'48064150',
'48064148',
'48064151',
'48064147',
'48064164',
'48064163',
'48064162',
'48064160',
'48064161',
'48064157',
'48064153',
'48064156',
'48064169',
'48064168',
'48064154',
'48064170',
'48064172',
'48064167',
'48064173',
'48064171',
'48064155',
'48064178',
'48064180',
'48064179',
'48064176',
'48064181',
'48064177',
'47605815',
'47605812',
'47605814',
'47605813',
'47605810',
'47875594',
'47875593',
'47227496',
'47227495',
'47227499',
'47227500',
'47227492',
'47227494',
'47227493',
'47227490',
'47227501',
'47227502',
'47227497',
'47227498',
'47605799',
'47605794',
'47605800',
'47605796',
'47605798',
'47605797',
'47605801',
'48064194',
'48064202',
'48064199',
'48064195',
'48064201',
'48064200',
'48064198',
'48064197',
'48064196',
'48064191',
'48064186',
'48064192',
'48064193',
'48064187',
'48064189',
'48064188',
'48064203',
'48064206',
'48064209',
'48064212',
'48064211',
'48064207',
'48064210',
'48064205',
'48064204',
'48064213',
'48064219',
'48064215',
'48064218',
'48064217',
'48064221',
'48064222',
'48064220',
'48064214',
'47605804',
'47605805',
'47605806',
'47605793',
'47605791',
'47605792',
'47605819',
'47605820',
'48064185',
'47605818',
'48064183',
'48064184',
'47605817',
'47605816',
'73118325',
'73118283',
'31495294',
'30759225',
'22303729',
'22303728',
'22303692',
'47605807',
'47605809',
'47605808',
'30751558',
'42276279',
'42276220',
'77190775',
'77190940',
'77190957',
'65581761',
'65582017',
'69804631',
'39476878',
'77190320',
'32887788',
'44424187',
'24751592',
'44424236',
'44424151',
'59792911',
'24552549',
'86864097',
'25431610',
'69802015',
'69802049',
'57466898',
'29596582',
'23211219',
'57467037',
'69801686',
'37578018',
'12025094',
'37523865',
'32002966',
'30751562',
'36097494',
'13147798',
'95698080',
'57467060',
'30650789',
'17065335',
'17065285',
'28167088',
'28174894',
'28169530',
'27752589',
'27752598',
'36097499',
'27752597',
'23098601',
'28167005',
'28174878',
'28167252',
'27752588',
'36097498',
'78237831',
'23098296',
'17065293',
'17065368',
'17065350',
'17065343',
'17102450',
'28173938',
'28174852',
'28174431',
'17065392',
'28174324',
'28174449',
'28172955',
'17100918',
'17062506',
'29584380',
'29580313',
'29584422',
'26803890',
'90714726',
'90714650',
'30759209',
'30759175',
'30759191',
'30759178',
'30759169',
'30759196',
'30759181',
'30759167',
'30759205',
'30759174',
'30759208',
'30759172',
'30759163',
'30759193',
'30759207',
'30759171',
'30759168',
'30759194',
'30759173',
'30759180',
'30759210',
'30759202',
'30759162',
'30759166',
'30759214',
'30759188',
'30759183',
'30759185',
'30759177',
'30759158',
'30759160',
'30759216',
'30759206',
'30759201',
'30759204',
'30759215',
'30759170',
'30759176',
'30759190',
'30759165',
'30759186',
'78069457',
'66134859',
'90714528',
'42622268',
'42622261',
'42622262',
'42622267',
'42622264',
'42622263',
'39996828',
'42622298',
'34636176',
'42622285',
'42622284',
'42622302',
'42622301',
'42622295',
'42622296',
'42622265',
'42622317',
'44899852',
'23098353',
'37523847',
'44899849',
'37523851',
'37523848',
'42622297',
'42622286',
'42622283',
'42622335',
'44899851',
'44899850',
'42622336',
'42622300',
'42622299',
'42622330',
'42622331',
'38203550',
'44899867',
'39710081',
'39710080',
'42622334',
'42622333',
'42622310',
'42622311',
'42622313',
'42622312',
'42622255',
'42622253',
'42622254',
'34636110',
'34636109',
'44899868',
'44899869',
'44899866',
'44424191',
'44899865',
'27752569',
'44899846',
'44899848',
'34966259',
'24550436',
'42622342',
'42622343',
'42622326',
'42622327',
'42622337',
'42622338',
'44899861',
'44899856',
'44899853',
'44899855',
'44899859',
'44899864',
'44899860',
'44899863',
'44899858',
'44899857',
'38203600',
'44424175',
'44424168',
'44424207',
'44424212',
'44424213',
'44424209',
'44424142',
'44424189',
'44424254',
'44424252',
'44424253',
'44424185',
'44424186',
'44424188',
'44424227',
'44424226',
'44424192',
'44424262',
'44424263',
'44424261',
'44424258',
'44424210',
'44424211',
'44424235',
'44424229',
'44424234',
'44424230',
'44424233',
'44424231',
'44424271',
'44424248',
'44424249',
'44424250',
'44424251',
'37578021',
'44424152',
'44424159',
'44424146',
'44424148',
'44424150',
'44424156',
'44424154',
'44424144',
'44424237',
'44424239',
'44424274',
'44424269',
'44424266',
'44424267',
'44424255',
'44424259',
'44424260',
'44424256',
'44424203',
'44424205',
'44424206',
'44424204',
'42622294',
'44424170',
'44424173',
'44424176',
'44424163',
'44424184',
'44424171',
'44424172',
'44424169',
'44424180',
'44424164',
'44424167',
'44424165',
'44424179',
'44424181',
'44424183',
'44424178',
'44480524',
'44480522',
'44480525',
'40793897',
'40792316',
'39996804',
'39996801',
'39996802',
'39996803',
'39996799',
'39996800',
'39710078',
'39710079',
'40793917',
'40072680',
'40072718',
'40072700',
'40072675',
'40072673',
'40072730',
'40072724',
'40072686',
'40072699',
'40072706',
'40072687',
'40072695',
'40072685',
'40072709',
'40072694',
'40072728',
'40072727',
'40072726',
'40072725',
'40072705',
'40072721',
'40072690',
'40072697',
'40072692',
'40072732',
'40072707',
'40072698',
'40072713',
'40072691',
'40072711',
'40072674',
'40072689',
'40072717',
'40072723',
'40072722',
'40072719',
'40072703',
'40072702',
'40072701',
'40072708',
'40072710',
'40072693',
'37578019',
'39020744',
'40792337',
'40792330',
'40792341',
'40793936',
'39476880',
'39476879',
'39476881',
'39996829',
'39996834',
'39996819',
'39996821',
'40793927',
'37523894',
'37523821',
'37523816',
'37523803',
'40793913',
'40793910',
'37523804',
'37523835',
'40793930',
'37523822',
'39990901',
'40072683',
'40072682',
'40079407',
'40072681',
'40792314',
'40792312',
'40792308',
'40792310',
'40792306',
'39996832',
'39996833',
'39996820',
'39996818',
'40133682',
'39996817',
'39996837',
'40793904',
'40155785',
'40109697',
'40109698',
'40109695',
'40109700',
'40109702',
'40109701',
'40155786',
'40268910',
'34862555',
'34862545',
'34862552',
'34636236',
'27752570',
'34636083',
'36097526',
'27752579',
'37523873',
'27612756',
'30751586',
'30759147',
'30759148',
'36097495',
'30751587',
'30751585',
'30759150',
'30751584',
'30751588',
'30751589',
'30759152',
'26835542',
'36097497',
'26835554',
'36097493',
'37523869',
'27752601',
'27752563',
'27752562',
'27752599',
'30650791',
'34862560',
'27752564',
'34862564',
'27752565',
'36097553',
'36097554',
'36097559',
'34636203',
'34636214',
'26835522',
'31977107',
'34636200',
'36097507',
'26835519',
'30751563',
'34636184',
'34636211',
'34636208',
'30751565',
'34636218',
'34636116',
'27752578',
'34636180',
'34636206',
'34636194',
'34636190',
'34636177',
'27752566',
'32463096',
'37523840',
'37523887',
'37523812',
'27752576',
'37523817',
'32463095',
'37523813',
'37523799',
'32463094',
'32463091',
'27752571',
'27752577',
'37523844',
'27752573',
'37523825',
'37523890',
'37523807',
'27752574',
'27752568',
'37523833',
'37523866',
'36097543',
'36097532',
'36097544',
'36097530',
'36097527',
'30759224',
'36097535',
'36097536',
'36097531',
'36097534',
'36097540',
'36097516',
'37523878',
'36097537',
'36097519',
'31728242',
'37523882',
'27752596',
'36097514',
'36097542',
'26835524',
'30759222',
'36097512',
'36097529',
'36097539',
'36097528',
'34636074',
'34636072',
'27752555',
'34636061',
'36097485',
'34636057',
'34636069',
'27752557',
'27612742',
'36097478',
'30751569',
'36097484',
'34636121',
'27612774',
'36097481',
'34636045',
'34636245',
'36097482',
'34636052',
'36097480',
'36097560',
'36097561',
'36097556',
'36097506',
'36097510',
'34636197',
'34636187',
'34636079',
'37523853',
'27752585',
'27752586',
'27752582',
'27752584',
'27752587',
'27752581',
'22303640',
'22303632',
'22303641',
'22303642',
'22303639',
'22303634',
'22303638',
'22303637',
'22303636',
'22303635',
'22303677',
'24751667',
'25824594',
'26835555',
'26835534',
'22303672',
'26835531',
'26835539',
'26835530',
'26835532',
'26835533',
'22303665',
'26835535',
'26835541',
'22303688',
'22303669',
'22303670',
'22303661',
'22303660',
'22303691',
'22303687',
'22303662',
'22303690',
'22303659',
'22303674',
'22303667',
'22303668',
'22303666',
'22303673',
'23211221',
'22303629',
'22303627',
'22303626',
'22303645',
'22303647',
'22303649',
'24751642',
'24751641',
'24751639',
'24751640',
'26835528',
'22911573',
'26835526',
'24779124',
'24751590',
'24751647',
'24751591',
'24751593',
'22303727',
'22303652',
'22303653',
'22303646',
'24751600',
'24751628',
'24751603',
'24751626',
'24751602',
'24751601',
'24751599',
'24751627',
'24751598',
'24751616',
'24751622',
'24751619',
'24751617',
'24751621',
'24751618',
'24751614',
'24751610',
'24751625',
'24751611',
'24751613',
'24751608',
'24751623',
'24751606',
'24751607',
'24751624',
'24751595',
'22303699',
'22303695',
'22303711',
'22303693',
'22303725',
'22303698',
'22303704',
'22303700',
'22303696',
'22303694',
'22303701',
'39990903',
'29584448',
'79216990',
'79216982',
'55320246',
'34111344',
'18067975',
'18067967',
'76751221',
'73155103',
'73155095',
'86901915',
'69404150',
'69404168',
'24978256',
'24978264',
'73190555',
'73187304',
'76751247',
'73183279',
'73183287',
'73202327',
'73202319',
'73202335',
'73205387',
'73205379',
'73207953',
'32887549',
'32887531',
'32887556',
'73138950',
'73138968',
'17498007',
'39342084',
'17498049',
'17498031',
'73174716',
'73174724',
'73159840',
'73159857',
'73180838',
'26803916',
'31291354',
'90714775',
'90714692',
'90714791',
'26803924',
'11848561',
'27660646',
'29815545',
'29815511',
'29815537',
'29815552',
'29815503',
'29815560',
'98512635',
'98512718',
'98512692',
'98512643',
'57081176',
'57081150',
'57081069',
'57081168',
'57081127',
'57081093',
'57081051',
'57081119',
'57081135',
'11754595',
'11754645',
'94447117',
'15154644',
'15154503',
'26826024',
'26826180',
'12335790',
'12356119',
'34966382',
'11754421',
'12355863',
'48780092',
'48780175',
'12356028',
'14436240',
'74703968',
'12356192',
'79530697',
'74704016',
'48780126',
'85876076',
'98688443',
'98687239',
'24552598',
'24552564',
'74682642',
'98688591',
'90697673',
'78066917',
'85876027',
'74682659',
'48168199',
'74682857',
'74682592',
'67645549',
'32091936',
'12355608',
'74683277',
'98688955',
'12355772',
'31462757',
'25430570',
'78066792',
'67400127',
'12355194',
'12355368',
'59788166',
'59788158',
'71403935',
'42789644',
'74682899',
'45369899',
'12025524',
'12025797',
'12026225',
'12026126',
'12025441',
'12026134',
'17223934',
'98512668',
'86864071',
'95698213',
'28145852',
'26826198',
'95699294',
'95699930',
'61341269',
'60774973',
'60774668',
'15154628',
'25431693',
'67659276',
'15155039',
'98512676',
'93268159',
'24554461',
'77190700',
'94447174',
'96725197',
'52996493',
'31656739',
'29596608',
'29596590',
'77190718',
'57467078',
'52997426',
'94447190',
'57387904',
'93268142',
'77190726',
'48779342',
'52997871',
'52996519',
'48779326',
'52998150',
'15154396',
'12025102',
'53003984',
'15154313',
'94447208',
'32013815',
'12025284',
'52997400',
'57467045',
'67652222',
'15154370',
'12025359',
'19124536',
'48779276',
'74703919',
'57081523',
'57466914',
'57466922',
'15154354',
'97211460',
'84046085',
'84046077',
'84046002',
'14976096',
'14976070',
'14976088',
'74704412',
'98818735',
'57081457',
'24552879',
'24552846',
'19121557',
'57081499',
'74704131',
'24552937',
'74703695',
'74703570',
'74703737',
'74703653',
'83562041',
'57081564',
'83562009',
'74703802',
'15154412',
'74704172',
'28172914',
'15154479',
'74682782',
'78069499',
'83973446',
'86864147',
'59794107',
'24549016',
'24549032',
'24549107',
'24549073',
'24549099',
'24548976',
'24549115',
'24549065',
'24549057',
'74684515',
'24549230',
'74683814',
'24550964',
'69789097',
'13148556',
'24548646',
'69791523',
'69794378',
'13148051',
'13147806',
'69791101',
'77058808',
'13147566',
'13147590',
'74683889',
'69803252',
'69802742',
'69802965',
'69800852',
'69802874',
'69802734',
'87765954',
'69803401',
'69803203',
'69800662',
'69803914',
'69803617',
'69802916',
'69804441',
'69802437',
'69800688',
'69803625',
'69803393',
'69802858',
'69800704',
'69802387',
'74797473',
'74797564',
'78237807',
'74684341',
'24550022',
'74684267',
'74797242',
'74797218',
'24549909',
'74797523',
'74797234',
'74797457',
'57937716',
'24549255',
'24549263',
'90053133',
'74703539',
'69804748',
'69802007',
'22303664',
'69802361',
'69802031',
'13149141',
'13149133',
'69802064',
'74684077',
'13147780',
'13147657',
'13147640',
'78237906',
'74798661',
'74798802',
'74798752',
'74798646',
'74798794',
'74798570',
'74798778',
'74798448',
'74798836',
'74798679',
'74798786',
'74798588',
'74798760',
'22303633',
'22303643',
'13148184',
'22303625',
'36097552',
'22303628',
'40793935',
'44424264',
'44424268',
'44424270',
'34110643',
'18066829',
'32887374',
'24554370',
'96724810',
'90053125',
'24751636',
'39990902',
'24751597',
'40792309',
'73205338',
'69802379',
'85876043',
'67658690',
'73207730',
'85875987',
'32091860',
'86901089',
'73202251',
'57387821',
'71403927',
'95699286',
'24964504',
'30759145',
'69403111',
'24549222',
'59773663',
'12355152',
'73190431',
'73183154',
'73180697',
'73154601',
'73159642',
'13147541',
'14975940',
'34862544',
'17497975',
'83960690',
'83562017',
'19117241',
'97200745',
'19123827',
'37578020',
'24552820',
'73138869',
'84045996',
'44424140',
'73174385',
'13147608',
'73187148',
'24549248',
'98818727',
'25824593',
'19736883',
'27660513',
'13148176',
'22303631',
'42622259',
'34636135',
'44424228',
'74684275',
'74684085',
'26826016',
'42622293',
'40079406',
'24549750',
'74797176',
'39710077',
'22303644',
'24751605',
'44424157',
'44424145',
'44424147',
'44424149',
'44424155',
'44424153',
'44424143',
'44424238',
'44424272',
'98688674',
'74798067',
'40793896',
'34636082',
'40792315',
'39996797',
'27752572',
'15154461',
'37523872',
'11754553',
'40793916',
'28172450',
'42788760',
'25430562',
'60773975',
'30751583',
'74704156',
'74683897',
'30759149',
'26835529',
'30759151',
'22303658',
'36097496',
'36097492',
'15154404',
'39020743',
'37523868',
'74703752',
'83561936',
'57081556',
'74703596',
'74703711',
'27752600',
'74703554',
'74703679',
'24552895',
'74704115',
'57081481',
'13149125',
'57081440',
'74704396',
'15154321',
'69802098',
'57081507',
'74703893',
'27752561',
'48777932',
'15154362',
'67652057',
'40792336',
'40792329',
'40792340',
'52996543',
'69804680',
'94447125',
'15154255',
'34862559',
'52999430',
'15154388',
'52997996',
'52996501',
'52997434',
'93268134',
'34862563',
'52997418',
'74703372',
'31656705',
'52995503',
'36097557',
'26835521',
'98512619',
'15154818',
'15155005',
'39996831',
'36097505',
'26835518',
'15154586',
'57937708',
'61340949',
'34636115',
'26826172',
'28145621',
'73208647',
'74797549',
'32463089',
'12025516',
'37523886',
'40793926',
'12025391',
'40793912',
'40793909',
'76751213',
'78237310',
'40793928',
'30759223',
'39990900',
'78066784',
'26835527',
'12355707',
'12355582',
'67645317',
'22911571',
'26835525',
'87765947',
'36097515',
'48167001',
'37523876',
'36097518',
'31728241',
'78066909',
'90697475',
'37523881',
'27752595',
'98688476',
'98687106',
'36097513',
'26835523',
'98688336',
'30759221',
'36097511',
'74683830',
'34636073',
'48779771',
'34636071',
'77058790',
'74703976',
'79530689',
'12356143',
'27752554',
'40792313',
'40792311',
'34636058',
'74703927',
'36097477',
'40792307',
'14435275',
'69785079',
'34636054',
'34636065',
'27752556',
'27612741',
'12355947',
'24751645',
'30751568',
'12355848',
'11754413',
'34636120',
'24548612',
'34636044',
'13148283',
'24550956',
'34636244',
'40792305',
'34636046',
'22303726',
'12356051',
'12335782',
'36097555',
'74683343',
'15154487',
'15154636',
'74684390',
'94447034',
'24751615',
'24751609',
'57080996',
'29815487',
'34636272',
'40793902',
'24751594',
'34636077',
'40109694',
'40109699',
'24548919',
'37523852',
'27752580',
'11848553',
'79216735',
'40268909',
'55320238'